@startuml
autonumber

title SD_getCandidaturasEligiveisParaEliminarDoFreelancer(freel)

participant "lc:\nListaCandidaturas" as LISTA_CAND
participant ":List<Candidaturas>" as LC
participant "lcand:\n List<Candidaturas>" as LCAND
participant "cand:\nCandidaturas" as CAND


activate LISTA_CAND
LISTA_CAND -> LISTA_CAND : lcand=getCandidaturasEligiveisParaEliminarDoFreelancer(freel)
activate LISTA_CAND
LISTA_CAND -> LCAND **:create()
loop [ Para cada Candidatura registada ]
LISTA_CAND-> LC : cand = get(i)
activate LC
deactivate LC
LISTA_CAND -> CAND: aceita = éCandidaturaElegivelParaEliminarDoFreelancer(freel)
activate CAND
deactivate CAND
OPT [ aceita == true ]
LISTA_CAND -> LCAND : add(cand)
activate LCAND
deactivate LCAND
end OPT
end loop

deactivate LISTA_CAND
@enduml
