<?xml version="1.0" encoding="UTF-8" standalone="no"?><svg xmlns="http://www.w3.org/2000/svg" xmlns:xlink="http://www.w3.org/1999/xlink" contentScriptType="application/ecmascript" contentStyleType="text/css" height="731px" preserveAspectRatio="none" style="width:605px;height:731px;" version="1.1" viewBox="0 0 605 731" width="605px" zoomAndPan="magnify"><defs><filter height="300%" id="f14wuc98dockg1" width="300%" x="-1" y="-1"><feGaussianBlur result="blurOut" stdDeviation="2.0"/><feColorMatrix in="blurOut" result="blurOut2" type="matrix" values="0 0 0 0 0 0 0 0 0 0 0 0 0 0 0 0 0 0 .4 0"/><feOffset dx="4.0" dy="4.0" in="blurOut2" result="blurOut3"/><feBlend in="SourceGraphic" in2="blurOut3" mode="normal"/></filter></defs><g><ellipse cx="427.3679" cy="680.6736" fill="#FEFECE" filter="url(#f14wuc98dockg1)" rx="106.3679" ry="23.6736" style="stroke: #A80036; stroke-width: 1.5;"/><text fill="#000000" font-family="sans-serif" font-size="14" lengthAdjust="spacingAndGlyphs" textLength="190" x="332.3679" y="685.322">UC1 - Registar Organização</text><ellipse cx="427.4942" cy="405.3988" fill="#FEFECE" filter="url(#f14wuc98dockg1)" rx="117.4942" ry="25.8988" style="stroke: #A80036; stroke-width: 1.5;"/><text fill="#000000" font-family="sans-serif" font-size="14" lengthAdjust="spacingAndGlyphs" textLength="214" x="320.4942" y="410.0473">UC2 - Definir Área de Atividade</text><ellipse cx="427.2544" cy="495.2509" fill="#FEFECE" filter="url(#f14wuc98dockg1)" rx="129.2544" ry="28.2509" style="stroke: #A80036; stroke-width: 1.5;"/><text fill="#000000" font-family="sans-serif" font-size="14" lengthAdjust="spacingAndGlyphs" textLength="239" x="307.7544" y="499.8993">UC3 - Definir Categoria (de Tarefa)</text><ellipse cx="427.4927" cy="590.2985" fill="#FEFECE" filter="url(#f14wuc98dockg1)" rx="144.4927" ry="31.2985" style="stroke: #A80036; stroke-width: 1.5;"/><text fill="#000000" font-family="sans-serif" font-size="14" lengthAdjust="spacingAndGlyphs" textLength="271" x="291.9927" y="594.947">UC4 - Especificar Competência Técnica</text><ellipse cx="427.6526" cy="308.7305" fill="#FEFECE" filter="url(#f14wuc98dockg1)" rx="166.6526" ry="35.7305" style="stroke: #A80036; stroke-width: 1.5;"/><text fill="#000000" font-family="sans-serif" font-size="14" lengthAdjust="spacingAndGlyphs" textLength="317" x="269.1526" y="313.379">UC5 - Especificar Colaborador de Organização</text><ellipse cx="427.4095" cy="125.5819" fill="#FEFECE" filter="url(#f14wuc98dockg1)" rx="95.9095" ry="21.5819" style="stroke: #A80036; stroke-width: 1.5;"/><text fill="#000000" font-family="sans-serif" font-size="14" lengthAdjust="spacingAndGlyphs" textLength="167" x="343.9095" y="130.2303">UC6 - Especificar Tarefa</text><ellipse cx="427.4128" cy="202.4826" fill="#FEFECE" filter="url(#f14wuc98dockg1)" rx="87.9128" ry="19.9826" style="stroke: #A80036; stroke-width: 1.5;"/><text fill="#000000" font-family="sans-serif" font-size="14" lengthAdjust="spacingAndGlyphs" textLength="149" x="352.9128" y="207.131">UC10 - Seriar Anúncio</text><!--MD5=[2ef883c7bda54365519191918ae31df7]
entity UNR--><ellipse cx="103.5" cy="649.5" fill="#FEFECE" filter="url(#f14wuc98dockg1)" rx="8" ry="8" style="stroke: #A80036; stroke-width: 1.5;"/><path d="M103.5,657.5 L103.5,684.5 M90.5,665.5 L116.5,665.5 M103.5,684.5 L90.5,699.5 M103.5,684.5 L116.5,699.5 " fill="none" filter="url(#f14wuc98dockg1)" style="stroke: #A80036; stroke-width: 1.5;"/><text fill="#000000" font-family="sans-serif" font-size="14" lengthAdjust="spacingAndGlyphs" textLength="171" x="18" y="717.9951">Utilizador Não Registado</text><!--MD5=[5bb58f447e60c14e9d23282c6a4405f4]
entity ADM--><ellipse cx="103.5" cy="464.5" fill="#FEFECE" filter="url(#f14wuc98dockg1)" rx="8" ry="8" style="stroke: #A80036; stroke-width: 1.5;"/><path d="M103.5,472.5 L103.5,499.5 M90.5,480.5 L116.5,480.5 M103.5,499.5 L90.5,514.5 M103.5,499.5 L116.5,514.5 " fill="none" filter="url(#f14wuc98dockg1)" style="stroke: #A80036; stroke-width: 1.5;"/><text fill="#000000" font-family="sans-serif" font-size="14" lengthAdjust="spacingAndGlyphs" textLength="101" x="53" y="532.9951">Administrativo</text><!--MD5=[aba3a422084821251358def362bf37bd]
entity GO--><ellipse cx="103.5" cy="277.5" fill="#FEFECE" filter="url(#f14wuc98dockg1)" rx="8" ry="8" style="stroke: #A80036; stroke-width: 1.5;"/><path d="M103.5,285.5 L103.5,312.5 M90.5,293.5 L116.5,293.5 M103.5,312.5 L90.5,327.5 M103.5,312.5 L116.5,327.5 " fill="none" filter="url(#f14wuc98dockg1)" style="stroke: #A80036; stroke-width: 1.5;"/><text fill="#000000" font-family="sans-serif" font-size="14" lengthAdjust="spacingAndGlyphs" textLength="160" x="23.5" y="345.9951">Gestor de Organização</text><!--MD5=[b5af4e906b5608882632c7d969b5b8a1]
entity CO--><ellipse cx="103.5" cy="155.5" fill="#FEFECE" filter="url(#f14wuc98dockg1)" rx="8" ry="8" style="stroke: #A80036; stroke-width: 1.5;"/><path d="M103.5,163.5 L103.5,190.5 M90.5,171.5 L116.5,171.5 M103.5,190.5 L90.5,205.5 M103.5,190.5 L116.5,205.5 " fill="none" filter="url(#f14wuc98dockg1)" style="stroke: #A80036; stroke-width: 1.5;"/><text fill="#000000" font-family="sans-serif" font-size="14" lengthAdjust="spacingAndGlyphs" textLength="195" x="6" y="223.9951">Colaborador de Organização</text><!--MD5=[254daa4c0aa61d7f44e2a06cbfcf4906]
entity FRL--><ellipse cx="103.5" cy="17.5" fill="#FEFECE" filter="url(#f14wuc98dockg1)" rx="8" ry="8" style="stroke: #A80036; stroke-width: 1.5;"/><path d="M103.5,25.5 L103.5,52.5 M90.5,33.5 L116.5,33.5 M103.5,52.5 L90.5,67.5 M103.5,52.5 L116.5,67.5 " fill="none" filter="url(#f14wuc98dockg1)" style="stroke: #A80036; stroke-width: 1.5;"/><text fill="#000000" font-family="sans-serif" font-size="14" lengthAdjust="spacingAndGlyphs" textLength="71" x="68" y="85.9951">Freelancer</text><path d="M324,28.5 L324,44.5 L139.266,48.5 L324,52.5 L324,68.7656 A0,0 0 0 0 324,68.7656 L531,68.7656 A0,0 0 0 0 531,68.7656 L531,38.5 L521,28.5 L324,28.5 A0,0 0 0 0 324,28.5 " fill="#FBFB77" filter="url(#f14wuc98dockg1)" style="stroke: #A80036; stroke-width: 1.0;"/><path d="M521,28.5 L521,38.5 L531,38.5 L521,28.5 " fill="#FBFB77" style="stroke: #A80036; stroke-width: 1.0;"/><text fill="#000000" font-family="sans-serif" font-size="13" lengthAdjust="spacingAndGlyphs" textLength="176" x="330" y="45.5669">Ator identificado mas ainda</text><text fill="#000000" font-family="sans-serif" font-size="13" lengthAdjust="spacingAndGlyphs" textLength="186" x="330" y="60.6997">sem casos de uso concretos</text><!--MD5=[7b21f0941fa32888f6ae813cc64547f3]
link UNR to UC1--><path d="M189.102,680.5 C227.867,680.5 274.325,680.5 315.824,680.5 " fill="none" id="UNR-&gt;UC1" style="stroke: #A80036; stroke-width: 1.0;"/><polygon fill="#A80036" points="320.86,680.5,311.86,676.5,315.86,680.5,311.86,684.5,320.86,680.5" style="stroke: #A80036; stroke-width: 1.0;"/><!--MD5=[afb96f077b5aad6802be8a4e992892ce]
link ADM to UC2--><path d="M154.095,480.564 C184.824,471.399 225.138,459.536 261,449.5 C288.492,441.806 318.645,433.694 345.595,426.559 " fill="none" id="ADM-&gt;UC2" style="stroke: #A80036; stroke-width: 1.0;"/><polygon fill="#A80036" points="350.588,425.239,340.8644,423.6732,345.7542,426.5174,342.9099,431.4072,350.588,425.239" style="stroke: #A80036; stroke-width: 1.0;"/><!--MD5=[db1eef6a14ce759cd1b7bb831ae99df7]
link ADM to UC3--><path d="M154.107,495.5 C191.203,495.5 243.774,495.5 292.852,495.5 " fill="none" id="ADM-&gt;UC3" style="stroke: #A80036; stroke-width: 1.0;"/><polygon fill="#A80036" points="297.895,495.5,288.895,491.5,292.895,495.5,288.895,499.5,297.895,495.5" style="stroke: #A80036; stroke-width: 1.0;"/><!--MD5=[75201264684ae616ead1678418b4a491]
link ADM to UC4--><path d="M154.107,510.136 C202.409,524.386 276.949,546.378 335.851,563.756 " fill="none" id="ADM-&gt;UC4" style="stroke: #A80036; stroke-width: 1.0;"/><polygon fill="#A80036" points="340.781,565.21,333.28,558.8276,335.9852,563.7957,331.0171,566.5009,340.781,565.21" style="stroke: #A80036; stroke-width: 1.0;"/><!--MD5=[1877500cdd58ac1719eab615bb0e1b9e]
link GO to UC5--><path d="M183.682,308.5 C205.766,308.5 230.647,308.5 255.844,308.5 " fill="none" id="GO-&gt;UC5" style="stroke: #A80036; stroke-width: 1.0;"/><polygon fill="#A80036" points="260.887,308.5,251.887,304.5,255.887,308.5,251.887,312.5,260.887,308.5" style="stroke: #A80036; stroke-width: 1.0;"/><!--MD5=[980c96a9d2d6a561803d016e26da8f75]
link CO to UC6--><path d="M201.111,168.198 C248.29,159.26 304.303,148.649 348.686,140.241 " fill="none" id="CO-&gt;UC6" style="stroke: #A80036; stroke-width: 1.0;"/><polygon fill="#A80036" points="353.765,139.279,344.1774,137.0255,348.8525,140.2104,345.6676,144.8854,353.765,139.279" style="stroke: #A80036; stroke-width: 1.0;"/><!--MD5=[8c121b75bc13107d81fe560c8e6e0c52]
link CO to UC10--><path d="M201.111,191.301 C244.012,193.432 294.215,195.927 336.338,198.02 " fill="none" id="CO-&gt;UC10" style="stroke: #A80036; stroke-width: 1.0;"/><polygon fill="#A80036" points="341.434,198.273,332.6427,193.8331,336.4401,198.0259,332.2473,201.8233,341.434,198.273" style="stroke: #A80036; stroke-width: 1.0;"/><!--MD5=[3fbc41b221728ecba3fae6d1bec91d48]
@startuml
usecase UC1 as "UC1 - Registar Organização"
usecase UC2 as "UC2 - Definir Área de Atividade"
usecase UC3 as "UC3 - Definir Categoria (de Tarefa)"
usecase UC4 as "UC4 - Especificar Competência Técnica"
usecase UC5 as "UC5 - Especificar Colaborador de Organização"
usecase UC6 as "UC6 - Especificar Tarefa"
usecase UC10 as "UC10 - Seriar Anúncio"

actor "Utilizador Não Registado" as UNR
actor "Administrativo" as ADM
actor "Gestor de Organização" as GO
actor "Colaborador de Organização" as CO
actor "Freelancer" as FRL

left to right direction
UNR - ->(UC1)

ADM - ->(UC2)
ADM - ->(UC3)
ADM - ->(UC4)

GO - ->(UC5)

CO - -> (UC6)
CO - -> (UC10)

note right of (FRL)
  Ator identificado mas ainda
  sem casos de uso concretos
end note
@enduml

PlantUML version 1.2020.08beta1(Unknown compile time)
(GPL source distribution)
Java Runtime: Java(TM) SE Runtime Environment
JVM: Java HotSpot(TM) 64-Bit Server VM
Java Version: 14.0.1+7
Operating System: Linux
Default Encoding: UTF-8
Language: en
Country: US
--></g></svg>