@startuml
autonumber
actor "Utilizador não registado" as UNR
participant ":RegistarOrganizacaoUI" as UI
participant ":RegistarOrganizacaoController" as CTRL
participant ":Plataforma" as PLAT
participant "ro:RegistoOrganizacoes" as RO
participant "Organizacao" as ORG
participant "org:Organizacao" as ORGO
participant "end:EnderecoPostal" as END
participant "colab:Colaborador" as CO

activate UNR
UNR -> UI : registar organização
activate UI
UI -> UNR : solicita dados organização \n(nome,NIF,endereço,tlf,site,email)\n e sobre o gestor (nomeG,função,tlfG, emailG, pwd)
deactivate UI
UNR -> UI : introduz os dados solicitados
activate UI
UI -> CTRL : novaOrganizacao(nome,NIF,endLocal,endCodPostal,\nendLocalidade,tlf,site,email,nomeG,função,tlfG, emailG)
activate CTRL
CTRL -> PLAT : ro=getRegistoOrganizacoes()
activate PLAT
deactivate PLAT
CTRL -> RO : org=novaOrganizacao(nome,NIF,endLocal,endCodPostal,\nendLocalidade,tlf,site,email,nomeG,função,tlfG, emailG)
activate RO
RO -> ORG : end=novoEndereco(endLocal,endCodPostal,endLocalidade)
activate ORG
ORG --> END : create(endLocal,endCodPostal,endLocalidade)
deactivate ORG
RO -> ORG : colab=novoColaborador(nomeG,funcao,tlfG,emailG)
activate ORG
ORG --> CO : create(nomeG,funcao,tlfG,emailG)
deactivate ORG
RO --> ORGO : create(nome,NIF,end,tlf,site,email,colab)
deactivate RO
CTRL -> RO: validaOrganizacao(org)
activate RO
deactivate CTRL
deactivate RO
UI -> UNR : apresenta os dados e solicita confirmação
deactivate UI
UNR -> UI : confirma
activate UI
UI -> CTRL : registaOrganizacao()
activate CTRL
CTRL -> RO : registaOrganizacao(org)
activate RO
RO -> RO : validaOrganizacao(org)
ref over RO,PLAT,ORG,ORGO,END,CO : SD_RegistaGestorComoUtilizador
RO -> RO : addOrganizacao(org)
deactivate RO
UI -> UNR : operação bem sucedida
deactivate UI
deactivate UNR
@enduml