<?xml version="1.0" encoding="UTF-8" standalone="no"?><svg xmlns="http://www.w3.org/2000/svg" xmlns:xlink="http://www.w3.org/1999/xlink" contentScriptType="application/ecmascript" contentStyleType="text/css" height="1044px" preserveAspectRatio="none" style="width:1222px;height:1044px;" version="1.1" viewBox="0 0 1222 1044" width="1222px" zoomAndPan="magnify"><defs><filter height="300%" id="fxl3aiaesjulw" width="300%" x="-1" y="-1"><feGaussianBlur result="blurOut" stdDeviation="2.0"/><feColorMatrix in="blurOut" result="blurOut2" type="matrix" values="0 0 0 0 0 0 0 0 0 0 0 0 0 0 0 0 0 0 .4 0"/><feOffset dx="4.0" dy="4.0" in="blurOut2" result="blurOut3"/><feBlend in="SourceGraphic" in2="blurOut3" mode="normal"/></filter></defs><g><!--MD5=[a322db5a7ec64d2ff8f2d6cf1831dcec]
class CompetenciaTecnica--><rect fill="#FEFECE" filter="url(#fxl3aiaesjulw)" height="124.8281" id="CompetenciaTecnica" style="stroke: #A80036; stroke-width: 1.5;" width="484" x="83.5546" y="745"/><ellipse cx="256.3046" cy="761" fill="#ADD1B2" rx="11" ry="11" style="stroke: #A80036; stroke-width: 1.0;"/><path d="M259.2734,766.6406 Q258.6952,766.9375 258.0546,767.0859 Q257.414,767.2344 256.7109,767.2344 Q254.2109,767.2344 252.8905,765.5859 Q251.5702,763.9375 251.5702,760.8125 Q251.5702,757.6875 252.8905,756.0313 Q254.2109,754.375 256.7109,754.375 Q257.414,754.375 258.0624,754.5313 Q258.7109,754.6875 259.2734,754.9844 L259.2734,757.7031 Q258.6484,757.125 258.0546,756.8516 Q257.4609,756.5781 256.8359,756.5781 Q255.4921,756.5781 254.8046,757.6484 Q254.1171,758.7188 254.1171,760.8125 Q254.1171,762.9063 254.8046,763.9766 Q255.4921,765.0469 256.8359,765.0469 Q257.4609,765.0469 258.0546,764.7734 Q258.6484,764.5 259.2734,763.9219 L259.2734,766.6406 Z "/><text fill="#000000" font-family="sans-serif" font-size="12" lengthAdjust="spacingAndGlyphs" textLength="130" x="276.8046" y="765.1543">CompetenciaTecnica</text><line style="stroke: #A80036; stroke-width: 1.5;" x1="84.5546" x2="566.5546" y1="777" y2="777"/><text fill="#000000" font-family="sans-serif" font-size="11" lengthAdjust="spacingAndGlyphs" textLength="79" x="89.5546" y="791.2104">-String codigo</text><text fill="#000000" font-family="sans-serif" font-size="11" lengthAdjust="spacingAndGlyphs" textLength="102" x="89.5546" y="804.0151">-String descBreve</text><text fill="#000000" font-family="sans-serif" font-size="11" lengthAdjust="spacingAndGlyphs" textLength="126" x="89.5546" y="816.8198">-String descDetalhada</text><line style="stroke: #A80036; stroke-width: 1.5;" x1="84.5546" x2="566.5546" y1="823.4141" y2="823.4141"/><text fill="#000000" font-family="sans-serif" font-size="11" lengthAdjust="spacingAndGlyphs" textLength="318" x="89.5546" y="837.6245">+void validaGrauDeProficiencia(GrauDeProficiencia gdp)</text><text fill="#000000" font-family="sans-serif" font-size="11" lengthAdjust="spacingAndGlyphs" textLength="306" x="89.5546" y="850.4292">+void addGrauDeProficiencia(GrauDeProficiencia gdp)</text><text fill="#000000" font-family="sans-serif" font-size="11" lengthAdjust="spacingAndGlyphs" textLength="472" x="89.5546" y="863.2339">+GrauProficiencia create(String cod,String dsBreve,String dsDet, AreaAtividade at)</text><!--MD5=[02456e6632d968d6f68141e5893c6991]
class AreaAtividade--><rect fill="#FEFECE" filter="url(#fxl3aiaesjulw)" height="86.4141" id="AreaAtividade" style="stroke: #A80036; stroke-width: 1.5;" width="138" x="833.5546" y="764.5"/><ellipse cx="857.5546" cy="780.5" fill="#ADD1B2" rx="11" ry="11" style="stroke: #A80036; stroke-width: 1.0;"/><path d="M860.5234,786.1406 Q859.9452,786.4375 859.3046,786.5859 Q858.664,786.7344 857.9609,786.7344 Q855.4609,786.7344 854.1405,785.0859 Q852.8202,783.4375 852.8202,780.3125 Q852.8202,777.1875 854.1405,775.5313 Q855.4609,773.875 857.9609,773.875 Q858.664,773.875 859.3124,774.0313 Q859.9609,774.1875 860.5234,774.4844 L860.5234,777.2031 Q859.8984,776.625 859.3046,776.3516 Q858.7109,776.0781 858.0859,776.0781 Q856.7421,776.0781 856.0546,777.1484 Q855.3671,778.2188 855.3671,780.3125 Q855.3671,782.4063 856.0546,783.4766 Q856.7421,784.5469 858.0859,784.5469 Q858.7109,784.5469 859.3046,784.2734 Q859.8984,784 860.5234,783.4219 L860.5234,786.1406 Z "/><text fill="#000000" font-family="sans-serif" font-size="12" lengthAdjust="spacingAndGlyphs" textLength="86" x="873.5546" y="784.6543">AreaAtividade</text><line style="stroke: #A80036; stroke-width: 1.5;" x1="834.5546" x2="970.5546" y1="796.5" y2="796.5"/><text fill="#000000" font-family="sans-serif" font-size="11" lengthAdjust="spacingAndGlyphs" textLength="79" x="839.5546" y="810.7104">-String codigo</text><text fill="#000000" font-family="sans-serif" font-size="11" lengthAdjust="spacingAndGlyphs" textLength="102" x="839.5546" y="823.5151">-String descBreve</text><text fill="#000000" font-family="sans-serif" font-size="11" lengthAdjust="spacingAndGlyphs" textLength="126" x="839.5546" y="836.3198">-String descDetalhada</text><line style="stroke: #A80036; stroke-width: 1.5;" x1="834.5546" x2="970.5546" y1="842.9141" y2="842.9141"/><!--MD5=[ecaed46f78f8cfe1e9ce18477649be18]
class Plataforma--><rect fill="#FEFECE" filter="url(#fxl3aiaesjulw)" height="86.4141" id="Plataforma" style="stroke: #A80036; stroke-width: 1.5;" width="390" x="356.5546" y="380"/><ellipse cx="513.3046" cy="396" fill="#ADD1B2" rx="11" ry="11" style="stroke: #A80036; stroke-width: 1.0;"/><path d="M516.2733,401.6406 Q515.6952,401.9375 515.0546,402.0859 Q514.414,402.2344 513.7108,402.2344 Q511.2108,402.2344 509.8905,400.5859 Q508.5702,398.9375 508.5702,395.8125 Q508.5702,392.6875 509.8905,391.0313 Q511.2108,389.375 513.7108,389.375 Q514.414,389.375 515.0624,389.5313 Q515.7108,389.6875 516.2733,389.9844 L516.2733,392.7031 Q515.6483,392.125 515.0546,391.8516 Q514.4608,391.5781 513.8358,391.5781 Q512.4921,391.5781 511.8046,392.6484 Q511.1171,393.7188 511.1171,395.8125 Q511.1171,397.9063 511.8046,398.9766 Q512.4921,400.0469 513.8358,400.0469 Q514.4608,400.0469 515.0546,399.7734 Q515.6483,399.5 516.2733,398.9219 L516.2733,401.6406 Z "/><text fill="#000000" font-family="sans-serif" font-size="12" lengthAdjust="spacingAndGlyphs" textLength="68" x="533.8046" y="400.1543">Plataforma</text><line style="stroke: #A80036; stroke-width: 1.5;" x1="357.5546" x2="745.5546" y1="412" y2="412"/><text fill="#000000" font-family="sans-serif" font-size="11" lengthAdjust="spacingAndGlyphs" textLength="107" x="362.5546" y="426.2104">-String designacao</text><line style="stroke: #A80036; stroke-width: 1.5;" x1="357.5546" x2="745.5546" y1="432.8047" y2="432.8047"/><text fill="#000000" font-family="sans-serif" font-size="11" lengthAdjust="spacingAndGlyphs" textLength="338" x="362.5546" y="447.0151">+RegistoCompetenciasTecnicas getRegistoAreasAtividade()</text><text fill="#000000" font-family="sans-serif" font-size="11" lengthAdjust="spacingAndGlyphs" textLength="378" x="362.5546" y="459.8198">+RegistoCompetenciasTecnicas getRegistoCompeteciasTecnicas()</text><!--MD5=[bfb34c4dc22ac511fb87898ec06b0481]
class RegistoCompetenciasTecnicas--><rect fill="#FEFECE" filter="url(#fxl3aiaesjulw)" height="99.2188" id="RegistoCompetenciasTecnicas" style="stroke: #A80036; stroke-width: 1.5;" width="560" x="45.5546" y="556"/><ellipse cx="225.8046" cy="572" fill="#ADD1B2" rx="11" ry="11" style="stroke: #A80036; stroke-width: 1.0;"/><path d="M228.7734,577.6406 Q228.1952,577.9375 227.5546,578.0859 Q226.914,578.2344 226.2109,578.2344 Q223.7109,578.2344 222.3905,576.5859 Q221.0702,574.9375 221.0702,571.8125 Q221.0702,568.6875 222.3905,567.0313 Q223.7109,565.375 226.2109,565.375 Q226.914,565.375 227.5624,565.5313 Q228.2109,565.6875 228.7734,565.9844 L228.7734,568.7031 Q228.1484,568.125 227.5546,567.8516 Q226.9609,567.5781 226.3359,567.5781 Q224.9921,567.5781 224.3046,568.6484 Q223.6171,569.7188 223.6171,571.8125 Q223.6171,573.9063 224.3046,574.9766 Q224.9921,576.0469 226.3359,576.0469 Q226.9609,576.0469 227.5546,575.7734 Q228.1484,575.5 228.7734,574.9219 L228.7734,577.6406 Z "/><text fill="#000000" font-family="sans-serif" font-size="12" lengthAdjust="spacingAndGlyphs" textLength="191" x="246.3046" y="576.1543">RegistoCompetenciasTecnicas</text><line style="stroke: #A80036; stroke-width: 1.5;" x1="46.5546" x2="604.5546" y1="588" y2="588"/><line style="stroke: #A80036; stroke-width: 1.5;" x1="46.5546" x2="604.5546" y1="596" y2="596"/><text fill="#000000" font-family="sans-serif" font-size="11" lengthAdjust="spacingAndGlyphs" textLength="548" x="51.5546" y="610.2104">+CompetenciaTecnica novaCompetencia(String cod, String dsBreve, String dsDet, String atCod)</text><text fill="#000000" font-family="sans-serif" font-size="11" lengthAdjust="spacingAndGlyphs" textLength="282" x="51.5546" y="623.0151">+void validaCompetencia(CompetenciaTecnica ct)</text><text fill="#000000" font-family="sans-serif" font-size="11" lengthAdjust="spacingAndGlyphs" textLength="289" x="51.5546" y="635.8198">+void registaCompetencia(CompetenciaTecnica ct)</text><text fill="#000000" font-family="sans-serif" font-size="11" lengthAdjust="spacingAndGlyphs" textLength="265" x="51.5546" y="648.6245">-void addCompetencia(CompetenciaTecnica ct)</text><!--MD5=[13ace1d44b5c68581d5429ed2c7901cf]
class RegistoAreasAtividade--><rect fill="#FEFECE" filter="url(#fxl3aiaesjulw)" height="124.8281" id="RegistoAreasAtividade" style="stroke: #A80036; stroke-width: 1.5;" width="523" x="641.0546" y="543"/><ellipse cx="828.3046" cy="559" fill="#ADD1B2" rx="11" ry="11" style="stroke: #A80036; stroke-width: 1.0;"/><path d="M831.2734,564.6406 Q830.6952,564.9375 830.0546,565.0859 Q829.414,565.2344 828.7109,565.2344 Q826.2109,565.2344 824.8905,563.5859 Q823.5702,561.9375 823.5702,558.8125 Q823.5702,555.6875 824.8905,554.0313 Q826.2109,552.375 828.7109,552.375 Q829.414,552.375 830.0624,552.5313 Q830.7109,552.6875 831.2734,552.9844 L831.2734,555.7031 Q830.6484,555.125 830.0546,554.8516 Q829.4609,554.5781 828.8359,554.5781 Q827.4921,554.5781 826.8046,555.6484 Q826.1171,556.7188 826.1171,558.8125 Q826.1171,560.9063 826.8046,561.9766 Q827.4921,563.0469 828.8359,563.0469 Q829.4609,563.0469 830.0546,562.7734 Q830.6484,562.5 831.2734,561.9219 L831.2734,564.6406 Z "/><text fill="#000000" font-family="sans-serif" font-size="12" lengthAdjust="spacingAndGlyphs" textLength="140" x="848.8046" y="563.1543">RegistoAreasAtividade</text><line style="stroke: #A80036; stroke-width: 1.5;" x1="642.0546" x2="1163.0546" y1="575" y2="575"/><line style="stroke: #A80036; stroke-width: 1.5;" x1="642.0546" x2="1163.0546" y1="583" y2="583"/><text fill="#000000" font-family="sans-serif" font-size="11" lengthAdjust="spacingAndGlyphs" textLength="511" x="647.0546" y="597.2104">+AreaAtividade novaAreaAtividade(String cod, String dsBreve, String dsDet, String atCod)</text><text fill="#000000" font-family="sans-serif" font-size="11" lengthAdjust="spacingAndGlyphs" textLength="284" x="647.0546" y="610.0151">+Boolean validaAreaAtividade(AreaAtividade area)</text><text fill="#000000" font-family="sans-serif" font-size="11" lengthAdjust="spacingAndGlyphs" textLength="268" x="647.0546" y="622.8198">+void registaAreaAtividade(AreaAtividade area)</text><text fill="#000000" font-family="sans-serif" font-size="11" lengthAdjust="spacingAndGlyphs" textLength="228" x="647.0546" y="635.6245">+void AreaAtividade(AreaAtividade area)</text><text fill="#000000" font-family="sans-serif" font-size="11" lengthAdjust="spacingAndGlyphs" textLength="146" x="647.0546" y="648.4292">+void getAreasAtividade()</text><text fill="#000000" font-family="sans-serif" font-size="11" lengthAdjust="spacingAndGlyphs" textLength="208" x="647.0546" y="661.2339">+void getAreaAtividadeByCod(atCod)</text><!--MD5=[0d5f2a91845a226f1d20639596950880]
class EspecificarCompetenciaTecnicaController--><rect fill="#FEFECE" filter="url(#fxl3aiaesjulw)" height="188.8516" id="EspecificarCompetenciaTecnicaController" style="stroke: #A80036; stroke-width: 1.5;" width="616" x="243.5546" y="130"/><ellipse cx="417.8046" cy="146" fill="#ADD1B2" rx="11" ry="11" style="stroke: #A80036; stroke-width: 1.0;"/><path d="M420.7734,151.6406 Q420.1952,151.9375 419.5546,152.0859 Q418.914,152.2344 418.2109,152.2344 Q415.7109,152.2344 414.3905,150.5859 Q413.0702,148.9375 413.0702,145.8125 Q413.0702,142.6875 414.3905,141.0313 Q415.7109,139.375 418.2109,139.375 Q418.914,139.375 419.5624,139.5313 Q420.2109,139.6875 420.7734,139.9844 L420.7734,142.7031 Q420.1484,142.125 419.5546,141.8516 Q418.9609,141.5781 418.3359,141.5781 Q416.9921,141.5781 416.3046,142.6484 Q415.6171,143.7188 415.6171,145.8125 Q415.6171,147.9063 416.3046,148.9766 Q416.9921,150.0469 418.3359,150.0469 Q418.9609,150.0469 419.5546,149.7734 Q420.1484,149.5 420.7734,148.9219 L420.7734,151.6406 Z "/><text fill="#000000" font-family="sans-serif" font-size="12" lengthAdjust="spacingAndGlyphs" textLength="259" x="438.3046" y="150.1543">EspecificarCompetenciaTecnicaController</text><line style="stroke: #A80036; stroke-width: 1.5;" x1="244.5546" x2="858.5546" y1="162" y2="162"/><text fill="#000000" font-family="sans-serif" font-size="11" lengthAdjust="spacingAndGlyphs" textLength="153" x="249.5546" y="176.2104">-RegistoAreasAtividade raa</text><text fill="#000000" font-family="sans-serif" font-size="11" lengthAdjust="spacingAndGlyphs" textLength="140" x="249.5546" y="189.0151">-List&lt;AreaAtividade&gt; laa</text><text fill="#000000" font-family="sans-serif" font-size="11" lengthAdjust="spacingAndGlyphs" textLength="196" x="249.5546" y="201.8198">-RegistoCompetenciasTecnicas rct</text><text fill="#000000" font-family="sans-serif" font-size="11" lengthAdjust="spacingAndGlyphs" textLength="96" x="249.5546" y="214.6245">-AreaAtividade at</text><text fill="#000000" font-family="sans-serif" font-size="11" lengthAdjust="spacingAndGlyphs" textLength="135" x="249.5546" y="227.4292">-CompetenciaTecnica ct</text><text fill="#000000" font-family="sans-serif" font-size="11" lengthAdjust="spacingAndGlyphs" textLength="122" x="249.5546" y="240.2339">-GrauProficiencia gdp</text><line style="stroke: #A80036; stroke-width: 1.5;" x1="244.5546" x2="858.5546" y1="246.8281" y2="246.8281"/><text fill="#000000" font-family="sans-serif" font-size="11" lengthAdjust="spacingAndGlyphs" textLength="249" x="249.5546" y="261.0386">+RegistoAreasAtividade getAreasAtividade()</text><text fill="#000000" font-family="sans-serif" font-size="11" lengthAdjust="spacingAndGlyphs" textLength="329" x="249.5546" y="273.8433">+RegistoCompetenciasTecnicas getCompetenciaTecnica()</text><text fill="#000000" font-family="sans-serif" font-size="11" lengthAdjust="spacingAndGlyphs" textLength="604" x="249.5546" y="286.6479">+RegistoCompetenciasTecnicas novaCompetencia(String cod, String dsBreve, String dsDet, String atCod)</text><text fill="#000000" font-family="sans-serif" font-size="11" lengthAdjust="spacingAndGlyphs" textLength="452" x="249.5546" y="299.4526">+CompetenciaTecnica novoGrauDeProficiencia(Integer valor,String designacao)</text><text fill="#000000" font-family="sans-serif" font-size="11" lengthAdjust="spacingAndGlyphs" textLength="308" x="249.5546" y="312.2573">+RegistoCompetenciasTecnicas registaCompetencia()</text><!--MD5=[cca5c0c62c63b169373ee46a261b760e]
class EspecificarCompetenciaTecnicaUI--><rect fill="#FEFECE" filter="url(#fxl3aiaesjulw)" height="60.8047" id="EspecificarCompetenciaTecnicaUI" style="stroke: #A80036; stroke-width: 1.5;" width="242" x="430.5546" y="8"/><ellipse cx="445.5546" cy="24" fill="#ADD1B2" rx="11" ry="11" style="stroke: #A80036; stroke-width: 1.0;"/><path d="M448.5234,29.6406 Q447.9452,29.9375 447.3046,30.0859 Q446.664,30.2344 445.9609,30.2344 Q443.4609,30.2344 442.1405,28.5859 Q440.8202,26.9375 440.8202,23.8125 Q440.8202,20.6875 442.1405,19.0313 Q443.4609,17.375 445.9609,17.375 Q446.664,17.375 447.3124,17.5313 Q447.9609,17.6875 448.5234,17.9844 L448.5234,20.7031 Q447.8984,20.125 447.3046,19.8516 Q446.7109,19.5781 446.0859,19.5781 Q444.7421,19.5781 444.0546,20.6484 Q443.3671,21.7188 443.3671,23.8125 Q443.3671,25.9063 444.0546,26.9766 Q444.7421,28.0469 446.0859,28.0469 Q446.7109,28.0469 447.3046,27.7734 Q447.8984,27.5 448.5234,26.9219 L448.5234,29.6406 Z "/><text fill="#000000" font-family="sans-serif" font-size="12" lengthAdjust="spacingAndGlyphs" textLength="210" x="459.5546" y="28.1543">EspecificarCompetenciaTecnicaUI</text><line style="stroke: #A80036; stroke-width: 1.5;" x1="431.5546" x2="671.5546" y1="40" y2="40"/><text fill="#000000" font-family="sans-serif" font-size="11" lengthAdjust="spacingAndGlyphs" textLength="140" x="436.5546" y="54.2104">-List&lt;AreaAtividade&gt; laa</text><line style="stroke: #A80036; stroke-width: 1.5;" x1="431.5546" x2="671.5546" y1="60.8047" y2="60.8047"/><!--MD5=[a80139b28afc2c06ab4e607adcf43583]
class GrauDeProficiencia--><rect fill="#FEFECE" filter="url(#fxl3aiaesjulw)" height="86.4141" id="GrauDeProficiencia" style="stroke: #A80036; stroke-width: 1.5;" width="271" x="190.0546" y="947"/><ellipse cx="261.8046" cy="963" fill="#ADD1B2" rx="11" ry="11" style="stroke: #A80036; stroke-width: 1.0;"/><path d="M264.7734,968.6406 Q264.1952,968.9375 263.5546,969.0859 Q262.914,969.2344 262.2109,969.2344 Q259.7109,969.2344 258.3905,967.5859 Q257.0702,965.9375 257.0702,962.8125 Q257.0702,959.6875 258.3905,958.0313 Q259.7109,956.375 262.2109,956.375 Q262.914,956.375 263.5624,956.5313 Q264.2109,956.6875 264.7734,956.9844 L264.7734,959.7031 Q264.1484,959.125 263.5546,958.8516 Q262.9609,958.5781 262.3359,958.5781 Q260.9921,958.5781 260.3046,959.6484 Q259.6171,960.7188 259.6171,962.8125 Q259.6171,964.9063 260.3046,965.9766 Q260.9921,967.0469 262.3359,967.0469 Q262.9609,967.0469 263.5546,966.7734 Q264.1484,966.5 264.7734,965.9219 L264.7734,968.6406 Z "/><text fill="#000000" font-family="sans-serif" font-size="12" lengthAdjust="spacingAndGlyphs" textLength="119" x="282.3046" y="967.1543">GrauDeProficiencia</text><line style="stroke: #A80036; stroke-width: 1.5;" x1="191.0546" x2="460.0546" y1="979" y2="979"/><text fill="#000000" font-family="sans-serif" font-size="11" lengthAdjust="spacingAndGlyphs" textLength="76" x="196.0546" y="993.2104">-Integer valor</text><text fill="#000000" font-family="sans-serif" font-size="11" lengthAdjust="spacingAndGlyphs" textLength="107" x="196.0546" y="1006.0151">-String designacao</text><line style="stroke: #A80036; stroke-width: 1.5;" x1="191.0546" x2="460.0546" y1="1012.6094" y2="1012.6094"/><text fill="#000000" font-family="sans-serif" font-size="11" lengthAdjust="spacingAndGlyphs" textLength="259" x="196.0546" y="1026.8198">+void create(Integer valor,String designacao)</text><!--MD5=[ec1590f5037d4575896a6eee2fffbf21]
link EspecificarCompetenciaTecnicaUI to EspecificarCompetenciaTecnicaController--><path d="M551.5546,69.2141 C551.5546,84.7188 551.5546,104.4982 551.5546,124.7076 " fill="none" id="EspecificarCompetenciaTecnicaUI-&gt;EspecificarCompetenciaTecnicaController" style="stroke: #A80036; stroke-width: 1.0; stroke-dasharray: 7.0,7.0;"/><polygon fill="#A80036" points="551.5546,129.8525,555.5546,120.8525,551.5546,124.8525,547.5546,120.8525,551.5546,129.8525" style="stroke: #A80036; stroke-width: 1.0;"/><!--MD5=[fc91edec5b88a5673f73ea82f88e9dd8]
link EspecificarCompetenciaTecnicaController to Plataforma--><path d="M551.5546,319.0992 C551.5546,338.3743 551.5546,357.8839 551.5546,374.7114 " fill="none" id="EspecificarCompetenciaTecnicaController-&gt;Plataforma" style="stroke: #A80036; stroke-width: 1.0; stroke-dasharray: 7.0,7.0;"/><polygon fill="#A80036" points="551.5546,379.8443,555.5546,370.8443,551.5546,374.8443,547.5546,370.8443,551.5546,379.8443" style="stroke: #A80036; stroke-width: 1.0;"/><!--MD5=[8bfcfcfc4e9f14c2e08d5fccd7a4f6a1]
link EspecificarCompetenciaTecnicaController to AreaAtividade--><path d="M859.94,303.598 C982.0962,351.6808 1110.211,426.9893 1181.5546,543 C1210.657,590.323 1210.7618,620.7416 1181.5546,668 C1137.1578,739.8354 1043.3277,775.9166 976.7599,793.1478 " fill="none" id="EspecificarCompetenciaTecnicaController-&gt;AreaAtividade" style="stroke: #A80036; stroke-width: 1.0; stroke-dasharray: 7.0,7.0;"/><polygon fill="#A80036" points="971.6141,794.4564,981.3224,796.1146,976.4598,793.224,979.3505,788.3614,971.6141,794.4564" style="stroke: #A80036; stroke-width: 1.0;"/><!--MD5=[21d74c9f8b811b3fdf1d939be954ed01]
link EspecificarCompetenciaTecnicaController to CompetenciaTecnica--><path d="M287.5707,319.0729 C187.6399,369.2713 84.3725,441.9743 27.5546,543 C0.3211,591.4227 -2.2605,621.1227 27.5546,668 C47.3588,699.1376 76.1438,723.4434 108.116,742.3826 " fill="none" id="EspecificarCompetenciaTecnicaController-&gt;CompetenciaTecnica" style="stroke: #A80036; stroke-width: 1.0; stroke-dasharray: 7.0,7.0;"/><polygon fill="#A80036" points="112.4412,744.9013,106.6767,736.9157,108.1204,742.3852,102.6509,743.8289,112.4412,744.9013" style="stroke: #A80036; stroke-width: 1.0;"/><!--MD5=[e538c9efa8de58386edc6206f3c58807]
link CompetenciaTecnica to AreaAtividade--><path d="M567.7466,807.5 C661.5251,807.5 762.0066,807.5 828.1516,807.5 " fill="none" id="CompetenciaTecnica-&gt;AreaAtividade" style="stroke: #A80036; stroke-width: 1.0;"/><polygon fill="#A80036" points="833.2506,807.5,824.2506,803.5,828.2506,807.5,824.2506,811.5,833.2506,807.5" style="stroke: #A80036; stroke-width: 1.0;"/><text fill="#000000" font-family="sans-serif" font-size="13" lengthAdjust="spacingAndGlyphs" textLength="59" x="671.0546" y="800.5669">referente</text><text fill="#000000" font-family="sans-serif" font-size="13" lengthAdjust="spacingAndGlyphs" textLength="7" x="575.8084" y="804.3258">*</text><text fill="#000000" font-family="sans-serif" font-size="13" lengthAdjust="spacingAndGlyphs" textLength="8" x="817.6911" y="803.779">1</text><!--MD5=[35ccd488c2e6f6bfef6d2fb5f28e1a98]
link Plataforma to RegistoCompetenciasTecnicas--><path d="M498.2819,466.0189 C466.1791,491.9425 425.051,525.1544 390.9812,552.6665 " fill="none" id="Plataforma-&gt;RegistoCompetenciasTecnicas" style="stroke: #A80036; stroke-width: 1.0;"/><polygon fill="#A80036" points="386.8624,555.9925,396.3775,553.4502,390.7524,552.8512,391.3514,547.2261,386.8624,555.9925" style="stroke: #A80036; stroke-width: 1.0;"/><text fill="#000000" font-family="sans-serif" font-size="13" lengthAdjust="spacingAndGlyphs" textLength="41" x="460.5546" y="509.0669">possui</text><text fill="#000000" font-family="sans-serif" font-size="13" lengthAdjust="spacingAndGlyphs" textLength="8" x="480.7961" y="486.4297">1</text><text fill="#000000" font-family="sans-serif" font-size="13" lengthAdjust="spacingAndGlyphs" textLength="8" x="386.9213" y="545.0367">1</text><!--MD5=[727f7e9b0d39f0a1e7c7e190346316ff]
link Plataforma to RegistoAreasAtividade--><path d="M634.2922,466.0189 C676.997,488.2229 729.9852,515.7738 777.5607,540.5103 " fill="none" id="Plataforma-&gt;RegistoAreasAtividade" style="stroke: #A80036; stroke-width: 1.0;"/><polygon fill="#A80036" points="782.1473,542.8951,776.0075,535.1943,777.7111,540.5885,772.3169,542.2922,782.1473,542.8951" style="stroke: #A80036; stroke-width: 1.0;"/><text fill="#000000" font-family="sans-serif" font-size="13" lengthAdjust="spacingAndGlyphs" textLength="41" x="716.5546" y="509.0669">possui</text><text fill="#000000" font-family="sans-serif" font-size="13" lengthAdjust="spacingAndGlyphs" textLength="8" x="639.3331" y="486.4297">1</text><text fill="#000000" font-family="sans-serif" font-size="13" lengthAdjust="spacingAndGlyphs" textLength="8" x="759.7627" y="531.8737">1</text><!--MD5=[f832e5114c0a2f3b6fd1ddd795993084]
link RegistoAreasAtividade to AreaAtividade--><path d="M902.5546,668.0307 C902.5546,697.4824 902.5546,732.0651 902.5546,759.4256 " fill="none" id="RegistoAreasAtividade-&gt;AreaAtividade" style="stroke: #A80036; stroke-width: 1.0;"/><polygon fill="#A80036" points="902.5546,764.4475,906.5546,755.4475,902.5546,759.4475,898.5546,755.4475,902.5546,764.4475" style="stroke: #A80036; stroke-width: 1.0;"/><text fill="#000000" font-family="sans-serif" font-size="13" lengthAdjust="spacingAndGlyphs" textLength="41" x="903.5546" y="711.0669">possui</text><text fill="#000000" font-family="sans-serif" font-size="13" lengthAdjust="spacingAndGlyphs" textLength="8" x="894.1171" y="687.7739">1</text><text fill="#000000" font-family="sans-serif" font-size="13" lengthAdjust="spacingAndGlyphs" textLength="7" x="894.9968" y="753.4352">*</text><!--MD5=[b207d53d0c42ad3e5c59a888fc5a34a8]
link RegistoCompetenciasTecnicas to CompetenciaTecnica--><path d="M325.5546,655.1735 C325.5546,680.687 325.5546,712.152 325.5546,739.8482 " fill="none" id="RegistoCompetenciasTecnicas-&gt;CompetenciaTecnica" style="stroke: #A80036; stroke-width: 1.0;"/><polygon fill="#A80036" points="325.5546,744.9736,329.5546,735.9736,325.5546,739.9736,321.5546,735.9736,325.5546,744.9736" style="stroke: #A80036; stroke-width: 1.0;"/><text fill="#000000" font-family="sans-serif" font-size="13" lengthAdjust="spacingAndGlyphs" textLength="41" x="326.5546" y="711.0669">possui</text><text fill="#000000" font-family="sans-serif" font-size="13" lengthAdjust="spacingAndGlyphs" textLength="8" x="316.9921" y="675.2744">1</text><text fill="#000000" font-family="sans-serif" font-size="13" lengthAdjust="spacingAndGlyphs" textLength="7" x="318.1499" y="733.9613">*</text><!--MD5=[285ec5869a78c6143caff54380acf34e]
link CompetenciaTecnica to GrauDeProficiencia--><path d="M325.5546,870.0508 C325.5546,895.3308 325.5546,923.8827 325.5546,946.7866 " fill="none" id="CompetenciaTecnica-GrauDeProficiencia" style="stroke: #A80036; stroke-width: 1.0;"/><text fill="#000000" font-family="sans-serif" font-size="13" lengthAdjust="spacingAndGlyphs" textLength="41" x="326.5546" y="913.0669">possui</text><polygon fill="#000000" points="342.5546,922.1328,345.5546,928.1328,348.5546,922.1328,342.5546,922.1328" style="stroke: #000000; stroke-width: 1.0;"/><text fill="#000000" font-family="sans-serif" font-size="13" lengthAdjust="spacingAndGlyphs" textLength="8" x="317.1171" y="889.7962">1</text><text fill="#000000" font-family="sans-serif" font-size="13" lengthAdjust="spacingAndGlyphs" textLength="23" x="300.7937" y="936.0665">0..*</text><!--MD5=[bf1aa07e3191e715d1560b20447f15e5]
@startuml
skinparam classAttributeIconSize 0

class CompetenciaTecnica {
  -String codigo
  -String descBreve
  -String descDetalhada
  +void validaGrauDeProficiencia(GrauDeProficiencia gdp)
  +void addGrauDeProficiencia(GrauDeProficiencia gdp)
  +GrauProficiencia create(String cod,String dsBreve,String dsDet, AreaAtividade at)
}

class AreaAtividade {
  -String codigo
  -String descBreve
  -String descDetalhada
}

class Plataforma {
  -String designacao
  +RegistoCompetenciasTecnicas getRegistoAreasAtividade()
  +RegistoCompetenciasTecnicas getRegistoCompeteciasTecnicas()
}

class RegistoCompetenciasTecnicas {
  +CompetenciaTecnica novaCompetencia(String cod, String dsBreve, String dsDet, String atCod)
  +void validaCompetencia(CompetenciaTecnica ct)
  +void registaCompetencia(CompetenciaTecnica ct)
  -void addCompetencia(CompetenciaTecnica ct)
}

class RegistoAreasAtividade {
  +AreaAtividade novaAreaAtividade(String cod, String dsBreve, String dsDet, String atCod)
  +Boolean validaAreaAtividade(AreaAtividade area)
  +void registaAreaAtividade(AreaAtividade area)
  +void AreaAtividade(AreaAtividade area)
  +void getAreasAtividade()
  +void getAreaAtividadeByCod(atCod)
}

class EspecificarCompetenciaTecnicaController {
  -RegistoAreasAtividade raa
  -List<AreaAtividade> laa
  -RegistoCompetenciasTecnicas rct
  -AreaAtividade at
  -CompetenciaTecnica ct
  -GrauProficiencia gdp
  +RegistoAreasAtividade getAreasAtividade()
  +RegistoCompetenciasTecnicas getCompetenciaTecnica()
  +RegistoCompetenciasTecnicas novaCompetencia(String cod, String dsBreve, String dsDet, String atCod)
  +CompetenciaTecnica novoGrauDeProficiencia(Integer valor,String designacao)
  +RegistoCompetenciasTecnicas registaCompetencia()
}

class EspecificarCompetenciaTecnicaUI {
  -List<AreaAtividade> laa

}

class GrauDeProficiencia {
  -Integer valor
  -String designacao
  +void create(Integer valor,String designacao)
}

EspecificarCompetenciaTecnicaUI ..> EspecificarCompetenciaTecnicaController
EspecificarCompetenciaTecnicaController ..> Plataforma
EspecificarCompetenciaTecnicaController ..> AreaAtividade
EspecificarCompetenciaTecnicaController ..> CompetenciaTecnica
CompetenciaTecnica "*" -> "1" AreaAtividade : referente
Plataforma "1" - -> "1" RegistoCompetenciasTecnicas : possui
Plataforma "1" - -> "1" RegistoAreasAtividade : possui
RegistoAreasAtividade "1" - -> "*" AreaAtividade : possui
RegistoCompetenciasTecnicas "1" - -> "*" CompetenciaTecnica : possui
CompetenciaTecnica "1" - - "0..*" GrauDeProficiencia : possui >
@enduml

PlantUML version 1.2019.12(Sun Nov 03 10:24:54 UTC 2019)
(GPL source distribution)
Java Runtime: OpenJDK Runtime Environment
JVM: OpenJDK 64-Bit Server VM
Java Version: 1.8.0_232-heroku-b09
Operating System: Linux
Default Encoding: UTF-8
Language: en
Country: US
--></g></svg>