<?xml version="1.0" encoding="UTF-8" standalone="no"?><svg xmlns="http://www.w3.org/2000/svg" xmlns:xlink="http://www.w3.org/1999/xlink" contentScriptType="application/ecmascript" contentStyleType="text/css" height="1288px" preserveAspectRatio="none" style="width:1256px;height:1288px;" version="1.1" viewBox="0 0 1256 1288" width="1256px" zoomAndPan="magnify"><defs><filter height="300%" id="fnnz8u4zyervt" width="300%" x="-1" y="-1"><feGaussianBlur result="blurOut" stdDeviation="2.0"/><feColorMatrix in="blurOut" result="blurOut2" type="matrix" values="0 0 0 0 0 0 0 0 0 0 0 0 0 0 0 0 0 0 .4 0"/><feOffset dx="4.0" dy="4.0" in="blurOut2" result="blurOut3"/><feBlend in="SourceGraphic" in2="blurOut3" mode="normal"/></filter></defs><g><!--MD5=[380d12a68ed0046a60f31008a02875d0]
class AplicacaoPOT--><rect fill="#FEFECE" filter="url(#fnnz8u4zyervt)" height="73.6094" id="AplicacaoPOT" style="stroke: #A80036; stroke-width: 1.5;" width="130" x="133.5" y="283"/><ellipse cx="154.8" cy="299" fill="#ADD1B2" rx="11" ry="11" style="stroke: #A80036; stroke-width: 1.0;"/><path d="M157.7688,304.6406 Q157.1906,304.9375 156.55,305.0859 Q155.9094,305.2344 155.2063,305.2344 Q152.7063,305.2344 151.3859,303.5859 Q150.0656,301.9375 150.0656,298.8125 Q150.0656,295.6875 151.3859,294.0313 Q152.7063,292.375 155.2063,292.375 Q155.9094,292.375 156.5578,292.5313 Q157.2063,292.6875 157.7688,292.9844 L157.7688,295.7031 Q157.1438,295.125 156.55,294.8516 Q155.9563,294.5781 155.3313,294.5781 Q153.9875,294.5781 153.3,295.6484 Q152.6125,296.7188 152.6125,298.8125 Q152.6125,300.9063 153.3,301.9766 Q153.9875,303.0469 155.3313,303.0469 Q155.9563,303.0469 156.55,302.7734 Q157.1438,302.5 157.7688,301.9219 L157.7688,304.6406 Z "/><text fill="#000000" font-family="sans-serif" font-size="12" lengthAdjust="spacingAndGlyphs" textLength="84" x="170.2" y="303.1543">AplicacaoPOT</text><line style="stroke: #A80036; stroke-width: 1.5;" x1="134.5" x2="262.5" y1="315" y2="315"/><line style="stroke: #A80036; stroke-width: 1.5;" x1="134.5" x2="262.5" y1="323" y2="323"/><text fill="#000000" font-family="sans-serif" font-size="11" lengthAdjust="spacingAndGlyphs" textLength="118" x="139.5" y="337.2104">+static getInstance()</text><text fill="#000000" font-family="sans-serif" font-size="11" lengthAdjust="spacingAndGlyphs" textLength="106" x="139.5" y="350.0151">+getSessaoAtual()</text><!--MD5=[1e13576e8c070e32200b62ceaa1f39ec]
class SessaoUtilizador--><rect fill="#FEFECE" filter="url(#fnnz8u4zyervt)" height="60.8047" id="SessaoUtilizador" style="stroke: #A80036; stroke-width: 1.5;" width="135" x="299" y="289.5"/><ellipse cx="314" cy="305.5" fill="#ADD1B2" rx="11" ry="11" style="stroke: #A80036; stroke-width: 1.0;"/><path d="M316.9688,311.1406 Q316.3906,311.4375 315.75,311.5859 Q315.1094,311.7344 314.4063,311.7344 Q311.9063,311.7344 310.5859,310.0859 Q309.2656,308.4375 309.2656,305.3125 Q309.2656,302.1875 310.5859,300.5313 Q311.9063,298.875 314.4063,298.875 Q315.1094,298.875 315.7578,299.0313 Q316.4063,299.1875 316.9688,299.4844 L316.9688,302.2031 Q316.3438,301.625 315.75,301.3516 Q315.1563,301.0781 314.5313,301.0781 Q313.1875,301.0781 312.5,302.1484 Q311.8125,303.2188 311.8125,305.3125 Q311.8125,307.4063 312.5,308.4766 Q313.1875,309.5469 314.5313,309.5469 Q315.1563,309.5469 315.75,309.2734 Q316.3438,309 316.9688,308.4219 L316.9688,311.1406 Z "/><text fill="#000000" font-family="sans-serif" font-size="12" lengthAdjust="spacingAndGlyphs" textLength="103" x="328" y="309.6543">SessaoUtilizador</text><line style="stroke: #A80036; stroke-width: 1.5;" x1="300" x2="433" y1="321.5" y2="321.5"/><line style="stroke: #A80036; stroke-width: 1.5;" x1="300" x2="433" y1="329.5" y2="329.5"/><text fill="#000000" font-family="sans-serif" font-size="11" lengthAdjust="spacingAndGlyphs" textLength="118" x="305" y="343.7104">+getEmailUtilizador()</text><!--MD5=[27c2d4bbe9f7b9d3b0ea2797cc54308a]
class Tarefa--><rect fill="#FEFECE" filter="url(#fnnz8u4zyervt)" height="137.6328" id="Tarefa" style="stroke: #A80036; stroke-width: 1.5;" width="139" x="6" y="992"/><ellipse cx="51.25" cy="1008" fill="#ADD1B2" rx="11" ry="11" style="stroke: #A80036; stroke-width: 1.0;"/><path d="M54.2188,1013.6406 Q53.6406,1013.9375 53,1014.0859 Q52.3594,1014.2344 51.6563,1014.2344 Q49.1563,1014.2344 47.8359,1012.5859 Q46.5156,1010.9375 46.5156,1007.8125 Q46.5156,1004.6875 47.8359,1003.0313 Q49.1563,1001.375 51.6563,1001.375 Q52.3594,1001.375 53.0078,1001.5313 Q53.6563,1001.6875 54.2188,1001.9844 L54.2188,1004.7031 Q53.5938,1004.125 53,1003.8516 Q52.4063,1003.5781 51.7813,1003.5781 Q50.4375,1003.5781 49.75,1004.6484 Q49.0625,1005.7188 49.0625,1007.8125 Q49.0625,1009.9063 49.75,1010.9766 Q50.4375,1012.0469 51.7813,1012.0469 Q52.4063,1012.0469 53,1011.7734 Q53.5938,1011.5 54.2188,1010.9219 L54.2188,1013.6406 Z "/><text fill="#000000" font-family="sans-serif" font-size="12" lengthAdjust="spacingAndGlyphs" textLength="40" x="71.75" y="1012.1543">Tarefa</text><line style="stroke: #A80036; stroke-width: 1.5;" x1="7" x2="144" y1="1024" y2="1024"/><text fill="#000000" font-family="sans-serif" font-size="11" lengthAdjust="spacingAndGlyphs" textLength="100" x="12" y="1038.2104">-String referencia</text><text fill="#000000" font-family="sans-serif" font-size="11" lengthAdjust="spacingAndGlyphs" textLength="107" x="12" y="1051.0151">-String designacao</text><text fill="#000000" font-family="sans-serif" font-size="11" lengthAdjust="spacingAndGlyphs" textLength="116" x="12" y="1063.8198">-String descInformal</text><text fill="#000000" font-family="sans-serif" font-size="11" lengthAdjust="spacingAndGlyphs" textLength="112" x="12" y="1076.6245">-String descTecnica</text><text fill="#000000" font-family="sans-serif" font-size="11" lengthAdjust="spacingAndGlyphs" textLength="112" x="12" y="1089.4292">-Integer duracaoEst</text><text fill="#000000" font-family="sans-serif" font-size="11" lengthAdjust="spacingAndGlyphs" textLength="96" x="12" y="1102.2339">-Double custoEst</text><line style="stroke: #A80036; stroke-width: 1.5;" x1="7" x2="144" y1="1108.8281" y2="1108.8281"/><text fill="#000000" font-family="sans-serif" font-size="11" lengthAdjust="spacingAndGlyphs" textLength="127" x="12" y="1123.0386">+getCategoriaTarefa()</text><!--MD5=[7e1ce8ab2bf669717f28e918f4971b9a]
class Categoria--><rect fill="#FEFECE" filter="url(#fnnz8u4zyervt)" height="86.4141" id="Categoria" style="stroke: #A80036; stroke-width: 1.5;" width="164" x="287.5" y="1018"/><ellipse cx="334.75" cy="1034" fill="#ADD1B2" rx="11" ry="11" style="stroke: #A80036; stroke-width: 1.0;"/><path d="M337.7188,1039.6406 Q337.1406,1039.9375 336.5,1040.0859 Q335.8594,1040.2344 335.1563,1040.2344 Q332.6563,1040.2344 331.3359,1038.5859 Q330.0156,1036.9375 330.0156,1033.8125 Q330.0156,1030.6875 331.3359,1029.0313 Q332.6563,1027.375 335.1563,1027.375 Q335.8594,1027.375 336.5078,1027.5313 Q337.1563,1027.6875 337.7188,1027.9844 L337.7188,1030.7031 Q337.0938,1030.125 336.5,1029.8516 Q335.9063,1029.5781 335.2813,1029.5781 Q333.9375,1029.5781 333.25,1030.6484 Q332.5625,1031.7188 332.5625,1033.8125 Q332.5625,1035.9063 333.25,1036.9766 Q333.9375,1038.0469 335.2813,1038.0469 Q335.9063,1038.0469 336.5,1037.7734 Q337.0938,1037.5 337.7188,1036.9219 L337.7188,1039.6406 Z "/><text fill="#000000" font-family="sans-serif" font-size="12" lengthAdjust="spacingAndGlyphs" textLength="61" x="355.25" y="1038.1543">Categoria</text><line style="stroke: #A80036; stroke-width: 1.5;" x1="288.5" x2="450.5" y1="1050" y2="1050"/><text fill="#000000" font-family="sans-serif" font-size="11" lengthAdjust="spacingAndGlyphs" textLength="52" x="293.5" y="1064.2104">-String id</text><text fill="#000000" font-family="sans-serif" font-size="11" lengthAdjust="spacingAndGlyphs" textLength="97" x="293.5" y="1077.0151">-String descricao</text><line style="stroke: #A80036; stroke-width: 1.5;" x1="288.5" x2="450.5" y1="1083.6094" y2="1083.6094"/><text fill="#000000" font-family="sans-serif" font-size="11" lengthAdjust="spacingAndGlyphs" textLength="152" x="293.5" y="1097.8198">+getCompetenciaTecnica()</text><!--MD5=[ecaed46f78f8cfe1e9ce18477649be18]
class Plataforma--><rect fill="#FEFECE" filter="url(#fnnz8u4zyervt)" height="86.4141" id="Plataforma" style="stroke: #A80036; stroke-width: 1.5;" width="149" x="469" y="277"/><ellipse cx="506.05" cy="293" fill="#ADD1B2" rx="11" ry="11" style="stroke: #A80036; stroke-width: 1.0;"/><path d="M509.0188,298.6406 Q508.4406,298.9375 507.8,299.0859 Q507.1594,299.2344 506.4563,299.2344 Q503.9563,299.2344 502.6359,297.5859 Q501.3156,295.9375 501.3156,292.8125 Q501.3156,289.6875 502.6359,288.0313 Q503.9563,286.375 506.4563,286.375 Q507.1594,286.375 507.8078,286.5313 Q508.4563,286.6875 509.0188,286.9844 L509.0188,289.7031 Q508.3938,289.125 507.8,288.8516 Q507.2063,288.5781 506.5813,288.5781 Q505.2375,288.5781 504.55,289.6484 Q503.8625,290.7188 503.8625,292.8125 Q503.8625,294.9063 504.55,295.9766 Q505.2375,297.0469 506.5813,297.0469 Q507.2063,297.0469 507.8,296.7734 Q508.3938,296.5 509.0188,295.9219 L509.0188,298.6406 Z "/><text fill="#000000" font-family="sans-serif" font-size="12" lengthAdjust="spacingAndGlyphs" textLength="68" x="524.95" y="297.1543">Plataforma</text><line style="stroke: #A80036; stroke-width: 1.5;" x1="470" x2="617" y1="309" y2="309"/><text fill="#000000" font-family="sans-serif" font-size="11" lengthAdjust="spacingAndGlyphs" textLength="107" x="475" y="323.2104">-String designacao</text><line style="stroke: #A80036; stroke-width: 1.5;" x1="470" x2="617" y1="329.8047" y2="329.8047"/><text fill="#000000" font-family="sans-serif" font-size="11" lengthAdjust="spacingAndGlyphs" textLength="137" x="475" y="344.0151">+getRegistoFreelancer()</text><text fill="#000000" font-family="sans-serif" font-size="11" lengthAdjust="spacingAndGlyphs" textLength="121" x="475" y="356.8198">+getRegistoAnuncio()</text><!--MD5=[19db0db7353a4bf63eefc676e5ba9b80]
class Anuncio--><rect fill="#FEFECE" filter="url(#fnnz8u4zyervt)" height="163.2422" id="Anuncio" style="stroke: #A80036; stroke-width: 1.5;" width="153" x="579" y="657"/><ellipse cx="626.25" cy="673" fill="#ADD1B2" rx="11" ry="11" style="stroke: #A80036; stroke-width: 1.0;"/><path d="M629.2188,678.6406 Q628.6406,678.9375 628,679.0859 Q627.3594,679.2344 626.6563,679.2344 Q624.1563,679.2344 622.8359,677.5859 Q621.5156,675.9375 621.5156,672.8125 Q621.5156,669.6875 622.8359,668.0313 Q624.1563,666.375 626.6563,666.375 Q627.3594,666.375 628.0078,666.5313 Q628.6563,666.6875 629.2188,666.9844 L629.2188,669.7031 Q628.5938,669.125 628,668.8516 Q627.4063,668.5781 626.7813,668.5781 Q625.4375,668.5781 624.75,669.6484 Q624.0625,670.7188 624.0625,672.8125 Q624.0625,674.9063 624.75,675.9766 Q625.4375,677.0469 626.7813,677.0469 Q627.4063,677.0469 628,676.7734 Q628.5938,676.5 629.2188,675.9219 L629.2188,678.6406 Z "/><text fill="#000000" font-family="sans-serif" font-size="12" lengthAdjust="spacingAndGlyphs" textLength="50" x="646.75" y="677.1543">Anuncio</text><line style="stroke: #A80036; stroke-width: 1.5;" x1="580" x2="731" y1="689" y2="689"/><text fill="#000000" font-family="sans-serif" font-size="11" lengthAdjust="spacingAndGlyphs" textLength="130" x="585" y="703.2104">-Date InicioPublicitacao</text><text fill="#000000" font-family="sans-serif" font-size="11" lengthAdjust="spacingAndGlyphs" textLength="121" x="585" y="716.0151">-Date FimPublicitacao</text><text fill="#000000" font-family="sans-serif" font-size="11" lengthAdjust="spacingAndGlyphs" textLength="141" x="585" y="728.8198">-Date InicioApresentacao</text><text fill="#000000" font-family="sans-serif" font-size="11" lengthAdjust="spacingAndGlyphs" textLength="132" x="585" y="741.6245">-Date FimApresentacao</text><text fill="#000000" font-family="sans-serif" font-size="11" lengthAdjust="spacingAndGlyphs" textLength="113" x="585" y="754.4292">-Date InicioSeriacao</text><text fill="#000000" font-family="sans-serif" font-size="11" lengthAdjust="spacingAndGlyphs" textLength="104" x="585" y="767.2339">-Date FimSeriacao</text><text fill="#000000" font-family="sans-serif" font-size="11" lengthAdjust="spacingAndGlyphs" textLength="113" x="585" y="780.0386">-String tipoSeriacao</text><line style="stroke: #A80036; stroke-width: 1.5;" x1="580" x2="731" y1="786.6328" y2="786.6328"/><text fill="#000000" font-family="sans-serif" font-size="11" lengthAdjust="spacingAndGlyphs" textLength="72" x="585" y="800.8433">+getTarefa()</text><text fill="#000000" font-family="sans-serif" font-size="11" lengthAdjust="spacingAndGlyphs" textLength="141" x="585" y="813.6479">+getRegistoCandidatua()</text><!--MD5=[475c5b924ed41035684e2831311827d2]
class Candidatura--><rect fill="#FEFECE" filter="url(#fnnz8u4zyervt)" height="86.4141" id="Candidatura" style="stroke: #A80036; stroke-width: 1.5;" width="109" x="1069" y="1191"/><ellipse cx="1084" cy="1207" fill="#ADD1B2" rx="11" ry="11" style="stroke: #A80036; stroke-width: 1.0;"/><path d="M1086.9688,1212.6406 Q1086.3906,1212.9375 1085.75,1213.0859 Q1085.1094,1213.2344 1084.4063,1213.2344 Q1081.9063,1213.2344 1080.5859,1211.5859 Q1079.2656,1209.9375 1079.2656,1206.8125 Q1079.2656,1203.6875 1080.5859,1202.0313 Q1081.9063,1200.375 1084.4063,1200.375 Q1085.1094,1200.375 1085.7578,1200.5313 Q1086.4063,1200.6875 1086.9688,1200.9844 L1086.9688,1203.7031 Q1086.3438,1203.125 1085.75,1202.8516 Q1085.1563,1202.5781 1084.5313,1202.5781 Q1083.1875,1202.5781 1082.5,1203.6484 Q1081.8125,1204.7188 1081.8125,1206.8125 Q1081.8125,1208.9063 1082.5,1209.9766 Q1083.1875,1211.0469 1084.5313,1211.0469 Q1085.1563,1211.0469 1085.75,1210.7734 Q1086.3438,1210.5 1086.9688,1209.9219 L1086.9688,1212.6406 Z "/><text fill="#000000" font-family="sans-serif" font-size="12" lengthAdjust="spacingAndGlyphs" textLength="77" x="1098" y="1211.1543">Candidatura</text><line style="stroke: #A80036; stroke-width: 1.5;" x1="1070" x2="1177" y1="1223" y2="1223"/><text fill="#000000" font-family="sans-serif" font-size="11" lengthAdjust="spacingAndGlyphs" textLength="74" x="1075" y="1237.2104">-double valor</text><text fill="#000000" font-family="sans-serif" font-size="11" lengthAdjust="spacingAndGlyphs" textLength="46" x="1075" y="1250.0151">-int dias</text><text fill="#000000" font-family="sans-serif" font-size="11" lengthAdjust="spacingAndGlyphs" textLength="70" x="1075" y="1262.8198">-String texto</text><line style="stroke: #A80036; stroke-width: 1.5;" x1="1070" x2="1177" y1="1269.4141" y2="1269.4141"/><!--MD5=[1f687b5315377fe49fca59b457947463]
class Freelancer--><rect fill="#FEFECE" filter="url(#fnnz8u4zyervt)" height="112.0234" id="Freelancer" style="stroke: #A80036; stroke-width: 1.5;" width="230" x="385.5" y="850"/><ellipse cx="462.75" cy="866" fill="#ADD1B2" rx="11" ry="11" style="stroke: #A80036; stroke-width: 1.0;"/><path d="M465.7188,871.6406 Q465.1406,871.9375 464.5,872.0859 Q463.8594,872.2344 463.1563,872.2344 Q460.6563,872.2344 459.3359,870.5859 Q458.0156,868.9375 458.0156,865.8125 Q458.0156,862.6875 459.3359,861.0313 Q460.6563,859.375 463.1563,859.375 Q463.8594,859.375 464.5078,859.5313 Q465.1563,859.6875 465.7188,859.9844 L465.7188,862.7031 Q465.0938,862.125 464.5,861.8516 Q463.9063,861.5781 463.2813,861.5781 Q461.9375,861.5781 461.25,862.6484 Q460.5625,863.7188 460.5625,865.8125 Q460.5625,867.9063 461.25,868.9766 Q461.9375,870.0469 463.2813,870.0469 Q463.9063,870.0469 464.5,869.7734 Q465.0938,869.5 465.7188,868.9219 L465.7188,871.6406 Z "/><text fill="#000000" font-family="sans-serif" font-size="12" lengthAdjust="spacingAndGlyphs" textLength="67" x="483.25" y="870.1543">Freelancer</text><line style="stroke: #A80036; stroke-width: 1.5;" x1="386.5" x2="614.5" y1="882" y2="882"/><text fill="#000000" font-family="sans-serif" font-size="11" lengthAdjust="spacingAndGlyphs" textLength="74" x="391.5" y="896.2104">-String nome</text><text fill="#000000" font-family="sans-serif" font-size="11" lengthAdjust="spacingAndGlyphs" textLength="59" x="391.5" y="909.0151">-String NIF</text><text fill="#000000" font-family="sans-serif" font-size="11" lengthAdjust="spacingAndGlyphs" textLength="88" x="391.5" y="921.8198">-String telefone</text><text fill="#000000" font-family="sans-serif" font-size="11" lengthAdjust="spacingAndGlyphs" textLength="73" x="391.5" y="934.6245">-String email</text><line style="stroke: #A80036; stroke-width: 1.5;" x1="386.5" x2="614.5" y1="941.2188" y2="941.2188"/><text fill="#000000" font-family="sans-serif" font-size="11" lengthAdjust="spacingAndGlyphs" textLength="218" x="391.5" y="955.4292">+getGrauProficiencia(categoriaTarefa)</text><!--MD5=[0d4fe674cc1d46ec0fc990086e50801a]
class GrauProficiencia--><rect fill="#FEFECE" filter="url(#fnnz8u4zyervt)" height="73.6094" id="GrauProficiencia" style="stroke: #A80036; stroke-width: 1.5;" width="134" x="832.5" y="1024"/><ellipse cx="847.5" cy="1040" fill="#ADD1B2" rx="11" ry="11" style="stroke: #A80036; stroke-width: 1.0;"/><path d="M850.4688,1045.6406 Q849.8906,1045.9375 849.25,1046.0859 Q848.6094,1046.2344 847.9063,1046.2344 Q845.4063,1046.2344 844.0859,1044.5859 Q842.7656,1042.9375 842.7656,1039.8125 Q842.7656,1036.6875 844.0859,1035.0313 Q845.4063,1033.375 847.9063,1033.375 Q848.6094,1033.375 849.2578,1033.5313 Q849.9063,1033.6875 850.4688,1033.9844 L850.4688,1036.7031 Q849.8438,1036.125 849.25,1035.8516 Q848.6563,1035.5781 848.0313,1035.5781 Q846.6875,1035.5781 846,1036.6484 Q845.3125,1037.7188 845.3125,1039.8125 Q845.3125,1041.9063 846,1042.9766 Q846.6875,1044.0469 848.0313,1044.0469 Q848.6563,1044.0469 849.25,1043.7734 Q849.8438,1043.5 850.4688,1042.9219 L850.4688,1045.6406 Z "/><text fill="#000000" font-family="sans-serif" font-size="12" lengthAdjust="spacingAndGlyphs" textLength="102" x="861.5" y="1044.1543">GrauProficiencia</text><line style="stroke: #A80036; stroke-width: 1.5;" x1="833.5" x2="965.5" y1="1056" y2="1056"/><text fill="#000000" font-family="sans-serif" font-size="11" lengthAdjust="spacingAndGlyphs" textLength="107" x="838.5" y="1070.2104">-String designacao</text><text fill="#000000" font-family="sans-serif" font-size="11" lengthAdjust="spacingAndGlyphs" textLength="50" x="838.5" y="1083.0151">-int valor</text><line style="stroke: #A80036; stroke-width: 1.5;" x1="833.5" x2="965.5" y1="1089.6094" y2="1089.6094"/><!--MD5=[a322db5a7ec64d2ff8f2d6cf1831dcec]
class CompetenciaTecnica--><rect fill="#FEFECE" filter="url(#fnnz8u4zyervt)" height="99.2188" id="CompetenciaTecnica" style="stroke: #A80036; stroke-width: 1.5;" width="162" x="569.5" y="1011.5"/><ellipse cx="584.5" cy="1027.5" fill="#ADD1B2" rx="11" ry="11" style="stroke: #A80036; stroke-width: 1.0;"/><path d="M587.4688,1033.1406 Q586.8906,1033.4375 586.25,1033.5859 Q585.6094,1033.7344 584.9063,1033.7344 Q582.4063,1033.7344 581.0859,1032.0859 Q579.7656,1030.4375 579.7656,1027.3125 Q579.7656,1024.1875 581.0859,1022.5313 Q582.4063,1020.875 584.9063,1020.875 Q585.6094,1020.875 586.2578,1021.0313 Q586.9063,1021.1875 587.4688,1021.4844 L587.4688,1024.2031 Q586.8438,1023.625 586.25,1023.3516 Q585.6563,1023.0781 585.0313,1023.0781 Q583.6875,1023.0781 583,1024.1484 Q582.3125,1025.2188 582.3125,1027.3125 Q582.3125,1029.4063 583,1030.4766 Q583.6875,1031.5469 585.0313,1031.5469 Q585.6563,1031.5469 586.25,1031.2734 Q586.8438,1031 587.4688,1030.4219 L587.4688,1033.1406 Z "/><text fill="#000000" font-family="sans-serif" font-size="12" lengthAdjust="spacingAndGlyphs" textLength="130" x="598.5" y="1031.6543">CompetenciaTecnica</text><line style="stroke: #A80036; stroke-width: 1.5;" x1="570.5" x2="730.5" y1="1043.5" y2="1043.5"/><text fill="#000000" font-family="sans-serif" font-size="11" lengthAdjust="spacingAndGlyphs" textLength="79" x="575.5" y="1057.7104">-String codigo</text><text fill="#000000" font-family="sans-serif" font-size="11" lengthAdjust="spacingAndGlyphs" textLength="102" x="575.5" y="1070.5151">-String descBreve</text><text fill="#000000" font-family="sans-serif" font-size="11" lengthAdjust="spacingAndGlyphs" textLength="126" x="575.5" y="1083.3198">-String descDetalhada</text><line style="stroke: #A80036; stroke-width: 1.5;" x1="570.5" x2="730.5" y1="1089.9141" y2="1089.9141"/><text fill="#000000" font-family="sans-serif" font-size="11" lengthAdjust="spacingAndGlyphs" textLength="128" x="575.5" y="1104.1245">+getGrauProficiencia()</text><!--MD5=[b0f240be72c8ea8a063442502d85fc08]
class CaraterCT--><rect fill="#FEFECE" filter="url(#fnnz8u4zyervt)" height="73.6094" id="CaraterCT" style="stroke: #A80036; stroke-width: 1.5;" width="156" x="454.5" y="1197"/><ellipse cx="497.4" cy="1213" fill="#ADD1B2" rx="11" ry="11" style="stroke: #A80036; stroke-width: 1.0;"/><path d="M500.3688,1218.6406 Q499.7906,1218.9375 499.15,1219.0859 Q498.5094,1219.2344 497.8063,1219.2344 Q495.3063,1219.2344 493.9859,1217.5859 Q492.6656,1215.9375 492.6656,1212.8125 Q492.6656,1209.6875 493.9859,1208.0313 Q495.3063,1206.375 497.8063,1206.375 Q498.5094,1206.375 499.1578,1206.5313 Q499.8063,1206.6875 500.3688,1206.9844 L500.3688,1209.7031 Q499.7438,1209.125 499.15,1208.8516 Q498.5563,1208.5781 497.9313,1208.5781 Q496.5875,1208.5781 495.9,1209.6484 Q495.2125,1210.7188 495.2125,1212.8125 Q495.2125,1214.9063 495.9,1215.9766 Q496.5875,1217.0469 497.9313,1217.0469 Q498.5563,1217.0469 499.15,1216.7734 Q499.7438,1216.5 500.3688,1215.9219 L500.3688,1218.6406 Z "/><text fill="#000000" font-family="sans-serif" font-size="12" lengthAdjust="spacingAndGlyphs" textLength="62" x="517.6" y="1217.1543">CaraterCT</text><line style="stroke: #A80036; stroke-width: 1.5;" x1="455.5" x2="609.5" y1="1229" y2="1229"/><text fill="#000000" font-family="sans-serif" font-size="11" lengthAdjust="spacingAndGlyphs" textLength="144" x="460.5" y="1243.2104">-Boolean obrigatoriedade</text><line style="stroke: #A80036; stroke-width: 1.5;" x1="455.5" x2="609.5" y1="1249.8047" y2="1249.8047"/><text fill="#000000" font-family="sans-serif" font-size="11" lengthAdjust="spacingAndGlyphs" textLength="127" x="460.5" y="1264.0151">+getObrigatoriedade()</text><!--MD5=[1d8aa98091123bff90ff3eeff52b11fd]
class Reconhecimento--><rect fill="#FEFECE" filter="url(#fnnz8u4zyervt)" height="112.0234" id="Reconhecimento" style="stroke: #A80036; stroke-width: 1.5;" width="209" x="795" y="850"/><ellipse cx="842.75" cy="866" fill="#ADD1B2" rx="11" ry="11" style="stroke: #A80036; stroke-width: 1.0;"/><path d="M845.7188,871.6406 Q845.1406,871.9375 844.5,872.0859 Q843.8594,872.2344 843.1563,872.2344 Q840.6563,872.2344 839.3359,870.5859 Q838.0156,868.9375 838.0156,865.8125 Q838.0156,862.6875 839.3359,861.0313 Q840.6563,859.375 843.1563,859.375 Q843.8594,859.375 844.5078,859.5313 Q845.1563,859.6875 845.7188,859.9844 L845.7188,862.7031 Q845.0938,862.125 844.5,861.8516 Q843.9063,861.5781 843.2813,861.5781 Q841.9375,861.5781 841.25,862.6484 Q840.5625,863.7188 840.5625,865.8125 Q840.5625,867.9063 841.25,868.9766 Q841.9375,870.0469 843.2813,870.0469 Q843.9063,870.0469 844.5,869.7734 Q845.0938,869.5 845.7188,868.9219 L845.7188,871.6406 Z "/><text fill="#000000" font-family="sans-serif" font-size="12" lengthAdjust="spacingAndGlyphs" textLength="105" x="863.25" y="870.1543">Reconhecimento</text><line style="stroke: #A80036; stroke-width: 1.5;" x1="796" x2="1003" y1="882" y2="882"/><text fill="#000000" font-family="sans-serif" font-size="11" lengthAdjust="spacingAndGlyphs" textLength="107" x="801" y="896.2104">-String designacao</text><text fill="#000000" font-family="sans-serif" font-size="11" lengthAdjust="spacingAndGlyphs" textLength="67" x="801" y="909.0151">-String data</text><text fill="#000000" font-family="sans-serif" font-size="11" lengthAdjust="spacingAndGlyphs" textLength="197" x="801" y="921.8198">-CompetenciaTecnica competencia</text><text fill="#000000" font-family="sans-serif" font-size="11" lengthAdjust="spacingAndGlyphs" textLength="127" x="801" y="934.6245">-GrauProficiencia grau</text><line style="stroke: #A80036; stroke-width: 1.5;" x1="796" x2="1003" y1="941.2188" y2="941.2188"/><text fill="#000000" font-family="sans-serif" font-size="11" lengthAdjust="spacingAndGlyphs" textLength="119" x="801" y="955.4292">+getGrauProfiencia()</text><!--MD5=[b8e872367bee618a85762746880ee638]
class EfetuarCandidaturaController--><rect fill="#FEFECE" filter="url(#fnnz8u4zyervt)" height="99.2188" id="EfetuarCandidaturaController" style="stroke: #A80036; stroke-width: 1.5;" width="226" x="253.5" y="117"/><ellipse cx="273" cy="133" fill="#ADD1B2" rx="11" ry="11" style="stroke: #A80036; stroke-width: 1.0;"/><path d="M275.9688,138.6406 Q275.3906,138.9375 274.75,139.0859 Q274.1094,139.2344 273.4063,139.2344 Q270.9063,139.2344 269.5859,137.5859 Q268.2656,135.9375 268.2656,132.8125 Q268.2656,129.6875 269.5859,128.0313 Q270.9063,126.375 273.4063,126.375 Q274.1094,126.375 274.7578,126.5313 Q275.4063,126.6875 275.9688,126.9844 L275.9688,129.7031 Q275.3438,129.125 274.75,128.8516 Q274.1563,128.5781 273.5313,128.5781 Q272.1875,128.5781 271.5,129.6484 Q270.8125,130.7188 270.8125,132.8125 Q270.8125,134.9063 271.5,135.9766 Q272.1875,137.0469 273.5313,137.0469 Q274.1563,137.0469 274.75,136.7734 Q275.3438,136.5 275.9688,135.9219 L275.9688,138.6406 Z "/><text fill="#000000" font-family="sans-serif" font-size="12" lengthAdjust="spacingAndGlyphs" textLength="184" x="288" y="137.1543">EfetuarCandidaturaController</text><line style="stroke: #A80036; stroke-width: 1.5;" x1="254.5" x2="478.5" y1="149" y2="149"/><text fill="#000000" font-family="sans-serif" font-size="11" lengthAdjust="spacingAndGlyphs" textLength="214" x="259.5" y="163.2104">-List&lt;AnunciosElegiveis&gt; listElegiveis</text><line style="stroke: #A80036; stroke-width: 1.5;" x1="254.5" x2="478.5" y1="169.8047" y2="169.8047"/><text fill="#000000" font-family="sans-serif" font-size="11" lengthAdjust="spacingAndGlyphs" textLength="136" x="259.5" y="184.0151">+getAnunciosElegiveis()</text><text fill="#000000" font-family="sans-serif" font-size="11" lengthAdjust="spacingAndGlyphs" textLength="113" x="259.5" y="196.8198">+novaCandidatura()</text><text fill="#000000" font-family="sans-serif" font-size="11" lengthAdjust="spacingAndGlyphs" textLength="127" x="259.5" y="209.6245">+efetuarCandidatura()</text><!--MD5=[07e49a45eace4b6c31c4cdd00887c4eb]
class EfetuarCandidaturaUI--><rect fill="#FEFECE" filter="url(#fnnz8u4zyervt)" height="48" id="EfetuarCandidaturaUI" style="stroke: #A80036; stroke-width: 1.5;" width="167" x="283" y="8"/><ellipse cx="298" cy="24" fill="#ADD1B2" rx="11" ry="11" style="stroke: #A80036; stroke-width: 1.0;"/><path d="M300.9688,29.6406 Q300.3906,29.9375 299.75,30.0859 Q299.1094,30.2344 298.4063,30.2344 Q295.9063,30.2344 294.5859,28.5859 Q293.2656,26.9375 293.2656,23.8125 Q293.2656,20.6875 294.5859,19.0313 Q295.9063,17.375 298.4063,17.375 Q299.1094,17.375 299.7578,17.5313 Q300.4063,17.6875 300.9688,17.9844 L300.9688,20.7031 Q300.3438,20.125 299.75,19.8516 Q299.1563,19.5781 298.5313,19.5781 Q297.1875,19.5781 296.5,20.6484 Q295.8125,21.7188 295.8125,23.8125 Q295.8125,25.9063 296.5,26.9766 Q297.1875,28.0469 298.5313,28.0469 Q299.1563,28.0469 299.75,27.7734 Q300.3438,27.5 300.9688,26.9219 L300.9688,29.6406 Z "/><text fill="#000000" font-family="sans-serif" font-size="12" lengthAdjust="spacingAndGlyphs" textLength="135" x="312" y="28.1543">EfetuarCandidaturaUI</text><line style="stroke: #A80036; stroke-width: 1.5;" x1="284" x2="449" y1="40" y2="40"/><line style="stroke: #A80036; stroke-width: 1.5;" x1="284" x2="449" y1="48" y2="48"/><!--MD5=[5989a2e3174efcfc62cf38168ac2ffc8]
class RegistoFreelancer--><rect fill="#FEFECE" filter="url(#fnnz8u4zyervt)" height="73.6094" id="RegistoFreelancer" style="stroke: #A80036; stroke-width: 1.5;" width="203" x="393" y="553"/><ellipse cx="433.65" cy="569" fill="#ADD1B2" rx="11" ry="11" style="stroke: #A80036; stroke-width: 1.0;"/><path d="M436.6188,574.6406 Q436.0406,574.9375 435.4,575.0859 Q434.7594,575.2344 434.0563,575.2344 Q431.5563,575.2344 430.2359,573.5859 Q428.9156,571.9375 428.9156,568.8125 Q428.9156,565.6875 430.2359,564.0313 Q431.5563,562.375 434.0563,562.375 Q434.7594,562.375 435.4078,562.5313 Q436.0563,562.6875 436.6188,562.9844 L436.6188,565.7031 Q435.9938,565.125 435.4,564.8516 Q434.8063,564.5781 434.1813,564.5781 Q432.8375,564.5781 432.15,565.6484 Q431.4625,566.7188 431.4625,568.8125 Q431.4625,570.9063 432.15,571.9766 Q432.8375,573.0469 434.1813,573.0469 Q434.8063,573.0469 435.4,572.7734 Q435.9938,572.5 436.6188,571.9219 L436.6188,574.6406 Z "/><text fill="#000000" font-family="sans-serif" font-size="12" lengthAdjust="spacingAndGlyphs" textLength="114" x="453.35" y="573.1543">RegistoFreelancer</text><line style="stroke: #A80036; stroke-width: 1.5;" x1="394" x2="595" y1="585" y2="585"/><text fill="#000000" font-family="sans-serif" font-size="11" lengthAdjust="spacingAndGlyphs" textLength="183" x="399" y="599.2104">-List&lt;Freelancer&gt; listFreelancer</text><line style="stroke: #A80036; stroke-width: 1.5;" x1="394" x2="595" y1="605.8047" y2="605.8047"/><text fill="#000000" font-family="sans-serif" font-size="11" lengthAdjust="spacingAndGlyphs" textLength="191" x="399" y="620.0151">+getFreelancerByEmail(EmailUtlz)</text><!--MD5=[d04b607798738b5a80618641aa4c1381]
class RegistoAnuncio--><rect fill="#FEFECE" filter="url(#fnnz8u4zyervt)" height="99.2188" id="RegistoAnuncio" style="stroke: #A80036; stroke-width: 1.5;" width="226" x="544.5" y="424"/><ellipse cx="604.75" cy="440" fill="#ADD1B2" rx="11" ry="11" style="stroke: #A80036; stroke-width: 1.0;"/><path d="M607.7188,445.6406 Q607.1406,445.9375 606.5,446.0859 Q605.8594,446.2344 605.1563,446.2344 Q602.6563,446.2344 601.3359,444.5859 Q600.0156,442.9375 600.0156,439.8125 Q600.0156,436.6875 601.3359,435.0313 Q602.6563,433.375 605.1563,433.375 Q605.8594,433.375 606.5078,433.5313 Q607.1563,433.6875 607.7188,433.9844 L607.7188,436.7031 Q607.0938,436.125 606.5,435.8516 Q605.9063,435.5781 605.2813,435.5781 Q603.9375,435.5781 603.25,436.6484 Q602.5625,437.7188 602.5625,439.8125 Q602.5625,441.9063 603.25,442.9766 Q603.9375,444.0469 605.2813,444.0469 Q605.9063,444.0469 606.5,443.7734 Q607.0938,443.5 607.7188,442.9219 L607.7188,445.6406 Z "/><text fill="#000000" font-family="sans-serif" font-size="12" lengthAdjust="spacingAndGlyphs" textLength="97" x="625.25" y="444.1543">RegistoAnuncio</text><line style="stroke: #A80036; stroke-width: 1.5;" x1="545.5" x2="769.5" y1="456" y2="456"/><text fill="#000000" font-family="sans-serif" font-size="11" lengthAdjust="spacingAndGlyphs" textLength="151" x="550.5" y="470.2104">-List&lt;Anuncio&gt; listAnuncio</text><line style="stroke: #A80036; stroke-width: 1.5;" x1="545.5" x2="769.5" y1="476.8047" y2="476.8047"/><text fill="#000000" font-family="sans-serif" font-size="11" lengthAdjust="spacingAndGlyphs" textLength="214" x="550.5" y="491.0151">+getListaAnuncioElegiveis(freelancer)</text><text fill="#000000" font-family="sans-serif" font-size="11" lengthAdjust="spacingAndGlyphs" textLength="79" x="550.5" y="503.8198">+getAnuncio()</text><text fill="#000000" font-family="sans-serif" font-size="11" lengthAdjust="spacingAndGlyphs" textLength="126" x="550.5" y="516.6245">+addAnuncio(anuncio)</text><!--MD5=[b14860080e612826be525be1eea70b4d]
class RegistoCandidatura--><rect fill="#FEFECE" filter="url(#fnnz8u4zyervt)" height="99.2188" id="RegistoCandidatura" style="stroke: #A80036; stroke-width: 1.5;" width="243" x="1002" y="1011.5"/><ellipse cx="1057.25" cy="1027.5" fill="#ADD1B2" rx="11" ry="11" style="stroke: #A80036; stroke-width: 1.0;"/><path d="M1060.2188,1033.1406 Q1059.6406,1033.4375 1059,1033.5859 Q1058.3594,1033.7344 1057.6563,1033.7344 Q1055.1563,1033.7344 1053.8359,1032.0859 Q1052.5156,1030.4375 1052.5156,1027.3125 Q1052.5156,1024.1875 1053.8359,1022.5313 Q1055.1563,1020.875 1057.6563,1020.875 Q1058.3594,1020.875 1059.0078,1021.0313 Q1059.6563,1021.1875 1060.2188,1021.4844 L1060.2188,1024.2031 Q1059.5938,1023.625 1059,1023.3516 Q1058.4063,1023.0781 1057.7813,1023.0781 Q1056.4375,1023.0781 1055.75,1024.1484 Q1055.0625,1025.2188 1055.0625,1027.3125 Q1055.0625,1029.4063 1055.75,1030.4766 Q1056.4375,1031.5469 1057.7813,1031.5469 Q1058.4063,1031.5469 1059,1031.2734 Q1059.5938,1031 1060.2188,1030.4219 L1060.2188,1033.1406 Z "/><text fill="#000000" font-family="sans-serif" font-size="12" lengthAdjust="spacingAndGlyphs" textLength="124" x="1077.75" y="1031.6543">RegistoCandidatura</text><line style="stroke: #A80036; stroke-width: 1.5;" x1="1003" x2="1244" y1="1043.5" y2="1043.5"/><line style="stroke: #A80036; stroke-width: 1.5;" x1="1003" x2="1244" y1="1051.5" y2="1051.5"/><text fill="#000000" font-family="sans-serif" font-size="11" lengthAdjust="spacingAndGlyphs" textLength="231" x="1008" y="1065.7104">+novaCandidatura(valor, duracao, texto)</text><text fill="#000000" font-family="sans-serif" font-size="11" lengthAdjust="spacingAndGlyphs" textLength="186" x="1008" y="1078.5151">+validaCandidatura(candidatura)</text><text fill="#000000" font-family="sans-serif" font-size="11" lengthAdjust="spacingAndGlyphs" textLength="194" x="1008" y="1091.3198">+efetuarCandidatura(candidatura)</text><text fill="#000000" font-family="sans-serif" font-size="11" lengthAdjust="spacingAndGlyphs" textLength="174" x="1008" y="1104.1245">+addCandidatura(candidatura)</text><ellipse cx="532.5" cy="1061" fill="#000000" rx="2" ry="2" style="stroke: none; stroke-width: 1.0;"/><!--MD5=[8281e942cfe19eb10a542fb5901726e8]
link EfetuarCandidaturaUI to EfetuarCandidaturaController--><path d="M366.5,56.0459 C366.5,71.4478 366.5,92.0929 366.5,111.3652 " fill="none" id="EfetuarCandidaturaUI-&gt;EfetuarCandidaturaController" style="stroke: #A80036; stroke-width: 1.0; stroke-dasharray: 7.0,7.0;"/><polygon fill="#A80036" points="366.5,116.759,370.5,107.759,366.5,111.759,362.5,107.759,366.5,116.759" style="stroke: #A80036; stroke-width: 1.0;"/><!--MD5=[cfb51fdb70c5194bcf32d3318b41bcae]
link EfetuarCandidaturaController to Plataforma--><path d="M423.9668,216.3371 C445.1582,234.7149 469.0676,255.4499 489.9034,273.5194 " fill="none" id="EfetuarCandidaturaController-&gt;Plataforma" style="stroke: #A80036; stroke-width: 1.0; stroke-dasharray: 7.0,7.0;"/><polygon fill="#A80036" points="493.7568,276.8612,489.5783,267.9427,489.9794,273.5853,484.3368,273.9864,493.7568,276.8612" style="stroke: #A80036; stroke-width: 1.0;"/><!--MD5=[57332eb46e6bbe985261627fd31632ad]
link EfetuarCandidaturaController to AplicacaoPOT--><path d="M311.9552,216.3371 C289.6767,236.6927 264.2331,259.9403 243.0943,279.2546 " fill="none" id="EfetuarCandidaturaController-&gt;AplicacaoPOT" style="stroke: #A80036; stroke-width: 1.0; stroke-dasharray: 7.0,7.0;"/><polygon fill="#A80036" points="239.1991,282.8136,248.5414,279.6958,242.8903,279.4409,243.1452,273.7898,239.1991,282.8136" style="stroke: #A80036; stroke-width: 1.0;"/><!--MD5=[aff73e1f55748a22e3dbc8c8608a5f9f]
link EfetuarCandidaturaController to SessaoUtilizador--><path d="M366.5,216.3371 C366.5,238.4494 366.5,263.9743 366.5,284.1626 " fill="none" id="EfetuarCandidaturaController-&gt;SessaoUtilizador" style="stroke: #A80036; stroke-width: 1.0; stroke-dasharray: 7.0,7.0;"/><polygon fill="#A80036" points="366.5,289.1749,370.5,280.1749,366.5,284.1749,362.5,280.1749,366.5,289.1749" style="stroke: #A80036; stroke-width: 1.0;"/><!--MD5=[957336f8f7652c1733534e96e2968a5f]
link Plataforma to RegistoFreelancer--><path d="M535.6816,363.0809 C526.4865,413.7478 511.3213,497.3114 502.1845,547.6566 " fill="none" id="Plataforma-&gt;RegistoFreelancer" style="stroke: #A80036; stroke-width: 1.0; stroke-dasharray: 7.0,7.0;"/><polygon fill="#A80036" points="501.265,552.7234,506.8078,544.5823,502.1578,547.8038,498.9364,543.1538,501.265,552.7234" style="stroke: #A80036; stroke-width: 1.0;"/><!--MD5=[ac0d90d37f4721c5fb6dbdc705ad2bcb]
link Plataforma to RegistoAnuncio--><path d="M575.5587,363.1668 C588.5998,380.7265 603.8106,401.2076 617.5619,419.7237 " fill="none" id="Plataforma-&gt;RegistoAnuncio" style="stroke: #A80036; stroke-width: 1.0; stroke-dasharray: 7.0,7.0;"/><polygon fill="#A80036" points="620.6553,423.889,618.5006,414.2787,617.6742,419.8749,612.078,419.0485,620.6553,423.889" style="stroke: #A80036; stroke-width: 1.0;"/><!--MD5=[55f954b55e54745b7c08c873f2d7d50c]
link RegistoAnuncio to Anuncio--><path d="M657.1262,523.0336 C656.8535,559.1661 656.4768,609.0721 656.1547,651.7561 " fill="none" id="RegistoAnuncio-&gt;Anuncio" style="stroke: #A80036; stroke-width: 1.0; stroke-dasharray: 7.0,7.0;"/><polygon fill="#A80036" points="656.1157,656.9243,660.1837,647.9548,656.1536,651.9244,652.184,647.8943,656.1157,656.9243" style="stroke: #A80036; stroke-width: 1.0;"/><!--MD5=[ba07d285067620ca2fa9537a587d45c7]
link Anuncio to RegistoCandidatura--><path d="M732.1279,805.7225 C740.962,811.2469 750.1622,816.1687 759.5,820 C867.9332,864.4897 925.9227,782.1615 1021.5,850 C1073.1453,886.6566 1099.6962,956.7424 1112.5757,1006.0541 " fill="none" id="Anuncio-&gt;RegistoCandidatura" style="stroke: #A80036; stroke-width: 1.0; stroke-dasharray: 7.0,7.0;"/><polygon fill="#A80036" points="1113.8548,1011.059,1115.5018,1001.3488,1112.6168,1006.2147,1107.7509,1003.3296,1113.8548,1011.059" style="stroke: #A80036; stroke-width: 1.0;"/><!--MD5=[c0cf882675f4056aa663c7bd940161f6]
link RegistoCandidatura to Candidatura--><path d="M1123.5,1110.5749 C1123.5,1134.1526 1123.5,1162.2362 1123.5,1185.654 " fill="none" id="RegistoCandidatura-&gt;Candidatura" style="stroke: #A80036; stroke-width: 1.0; stroke-dasharray: 7.0,7.0;"/><polygon fill="#A80036" points="1123.5,1190.8833,1127.5,1181.8833,1123.5,1185.8833,1119.5,1181.8833,1123.5,1190.8833" style="stroke: #A80036; stroke-width: 1.0;"/><!--MD5=[95795e0b4ecb0b567ae2ce3910745252]
link RegistoFreelancer to Freelancer--><path d="M495.2059,627.1784 C496.2213,680.6561 498.1064,779.939 499.3315,844.4591 " fill="none" id="RegistoFreelancer-&gt;Freelancer" style="stroke: #A80036; stroke-width: 1.0; stroke-dasharray: 7.0,7.0;"/><polygon fill="#A80036" points="499.4332,849.8164,503.2615,840.742,499.3382,844.8173,495.2629,840.894,499.4332,849.8164" style="stroke: #A80036; stroke-width: 1.0;"/><!--MD5=[439a6ad1de0b5aa57a973cae1bf36ce5]
link Anuncio to Tarefa--><path d="M663.8848,820.0057 C664.0259,868.3152 654.8924,926.7933 616.5,962 C559.4553,1014.3112 345.1336,975.5644 269.5,992 C229.0483,1000.7904 185.4971,1015.7468 149.9277,1029.4922 " fill="none" id="Anuncio-&gt;Tarefa" style="stroke: #A80036; stroke-width: 1.0;"/><polygon fill="#A80036" points="145.186,1031.3356,155.0238,1031.8025,149.8462,1029.5238,152.1249,1024.3462,145.186,1031.3356" style="stroke: #A80036; stroke-width: 1.0;"/><text fill="#000000" font-family="sans-serif" font-size="13" lengthAdjust="spacingAndGlyphs" textLength="41" x="663.5" y="910.5669">possui</text><text fill="#000000" font-family="sans-serif" font-size="13" lengthAdjust="spacingAndGlyphs" textLength="7" x="657.3351" y="840.2728">*</text><text fill="#000000" font-family="sans-serif" font-size="13" lengthAdjust="spacingAndGlyphs" textLength="8" x="152.7849" y="1024.5957">1</text><!--MD5=[cc2561a0285988b367253361d2d1973d]
link Tarefa to Categoria--><path d="M145.1739,1061 C186.2131,1061 238.4931,1061 282.257,1061 " fill="none" id="Tarefa-&gt;Categoria" style="stroke: #A80036; stroke-width: 1.0;"/><polygon fill="#A80036" points="287.2778,1061,278.2778,1057,282.2778,1061,278.2778,1065,287.2778,1061" style="stroke: #A80036; stroke-width: 1.0;"/><text fill="#000000" font-family="sans-serif" font-size="13" lengthAdjust="spacingAndGlyphs" textLength="106" x="163.25" y="1054.0669">enquadra-se em</text><text fill="#000000" font-family="sans-serif" font-size="13" lengthAdjust="spacingAndGlyphs" textLength="7" x="153.1773" y="1057.2739">*</text><text fill="#000000" font-family="sans-serif" font-size="13" lengthAdjust="spacingAndGlyphs" textLength="8" x="271.5986" y="1057.3864">1</text><!--MD5=[0d731ff285a62a08178b23be6cceb109]
link CompetenciaTecnica to GrauProficiencia--><path d="M731.6874,1061 C762.4097,1061 797.1519,1061 827.0226,1061 " fill="none" id="CompetenciaTecnica-&gt;GrauProficiencia" style="stroke: #A80036; stroke-width: 1.0;"/><polygon fill="#A80036" points="832.1561,1061,823.1561,1057,827.1561,1061,823.1561,1065,832.1561,1061" style="stroke: #A80036; stroke-width: 1.0;"/><text fill="#000000" font-family="sans-serif" font-size="13" lengthAdjust="spacingAndGlyphs" textLength="64" x="750" y="1054.0669">associado</text><text fill="#000000" font-family="sans-serif" font-size="13" lengthAdjust="spacingAndGlyphs" textLength="8" x="739.5406" y="1057.3715">1</text><text fill="#000000" font-family="sans-serif" font-size="13" lengthAdjust="spacingAndGlyphs" textLength="7" x="817.4075" y="1057.2752">*</text><!--MD5=[7fbeb7bcd2a7737111d998de4a14bf4d]
link Freelancer to Reconhecimento--><path d="M576.2938,849.8872 C627.427,815.6409 698.0171,775.0755 767.5,757 C818.1049,743.8355 855.0015,798.2804 876.7168,845.0149 " fill="none" id="Freelancer-&gt;Reconhecimento" style="stroke: #A80036; stroke-width: 1.0;"/><polygon fill="#A80036" points="878.9003,849.7996,878.8025,839.9512,876.8243,845.2509,871.5246,843.2728,878.9003,849.7996" style="stroke: #A80036; stroke-width: 1.0;"/><text fill="#000000" font-family="sans-serif" font-size="13" lengthAdjust="spacingAndGlyphs" textLength="26" x="768.5" y="743.0669">tem</text><text fill="#000000" font-family="sans-serif" font-size="13" lengthAdjust="spacingAndGlyphs" textLength="23" x="561.5314" y="838.8107">1..*</text><text fill="#000000" font-family="sans-serif" font-size="13" lengthAdjust="spacingAndGlyphs" textLength="8" x="867.9022" y="839.1097">1</text><!--MD5=[37c76b693b9cd1bbf25661bba94ed967]
link Reconhecimento to GrauProficiencia--><path d="M899.5,962.397 C899.5,980.9099 899.5,1001.1618 899.5,1018.4695 " fill="none" id="Reconhecimento-&gt;GrauProficiencia" style="stroke: #A80036; stroke-width: 1.0;"/><polygon fill="#A80036" points="899.5,1023.7411,903.5,1014.7411,899.5,1018.7411,895.5,1014.7411,899.5,1023.7411" style="stroke: #A80036; stroke-width: 1.0;"/><text fill="#000000" font-family="sans-serif" font-size="13" lengthAdjust="spacingAndGlyphs" textLength="81" x="817.5" y="989.1851">enquadra-se</text><text fill="#000000" font-family="sans-serif" font-size="13" lengthAdjust="spacingAndGlyphs" textLength="8" x="899.9875" y="982.258">1</text><text fill="#000000" font-family="sans-serif" font-size="13" lengthAdjust="spacingAndGlyphs" textLength="23" x="874.4516" y="1012.8819">1..*</text><!--MD5=[7aa20a6229951a7919b7ddc753de13dc]
link Categoria to apoint43355--><path d="M451.9551,1061 C487.0147,1061 521.8387,1061 530.4704,1061 " fill="none" id="Categoria-apoint43355" style="stroke: #A80036; stroke-width: 1.0;"/><text fill="#000000" font-family="sans-serif" font-size="13" lengthAdjust="spacingAndGlyphs" textLength="42" x="470" y="1054.0669">requer</text><text fill="#000000" font-family="sans-serif" font-size="13" lengthAdjust="spacingAndGlyphs" textLength="8" x="459.3848" y="1057.4103">1</text><!--MD5=[3b706e149495d801314e51f6c22bbb80]
link apoint43355 to CompetenciaTecnica--><path d="M534.8047,1061 C544.5542,1061 554.3038,1061 564.0533,1061 " fill="none" id="apoint43355-&gt;CompetenciaTecnica" style="stroke: #A80036; stroke-width: 1.0;"/><polygon fill="#A80036" points="569.1517,1061,560.1517,1057,564.1517,1061,560.1517,1065,569.1517,1061" style="stroke: #A80036; stroke-width: 1.0;"/><text fill="#000000" font-family="sans-serif" font-size="13" lengthAdjust="spacingAndGlyphs" textLength="7" x="554.5949" y="1057.3951">*</text><!--MD5=[4af0ac2684cbe46b92963d96aa05ab55]
link apoint43355 to CaraterCT--><path d="M532.5,1063.1874 C532.5,1076.799 532.5,1150.8185 532.5,1196.8407 " fill="none" id="apoint43355-CaraterCT" style="stroke: #A80036; stroke-width: 1.0; stroke-dasharray: 7.0,7.0;"/><!--MD5=[272dd5a009dae484ff46a63c7dc243b0]
@startuml
skinparam classAttributeIconSize 0

class AplicacaoPOT
{
  +static getInstance()
  +getSessaoAtual()
}

class SessaoUtilizador
{
  +getEmailUtilizador()
}

class Tarefa {
  -String referencia
  -String designacao
  -String descInformal
  -String descTecnica
  -Integer duracaoEst
  -Double custoEst
  +getCategoriaTarefa()
}

class Categoria {
  -String id
  -String descricao
  +getCompetenciaTecnica()
}

class Plataforma {
  -String designacao
  +getRegistoFreelancer()
  +getRegistoAnuncio()
}

class Anuncio {
-Date InicioPublicitacao
-Date FimPublicitacao
-Date InicioApresentacao
-Date FimApresentacao
-Date InicioSeriacao
-Date FimSeriacao
  -String tipoSeriacao
  +getTarefa()
  +getRegistoCandidatua()
}

class Candidatura {
  -double valor
  -int dias
  -String texto
}

class Freelancer {
  -String nome
  -String NIF
  -String telefone
  -String email
  +getGrauProficiencia(categoriaTarefa)
}

class GrauProficiencia {
  -String designacao
  -int valor
}

class CompetenciaTecnica {
  -String codigo
  -String descBreve
  -String descDetalhada
  +getGrauProficiencia()
}

class CaraterCT {
  -Boolean obrigatoriedade
  +getObrigatoriedade()
}

class Reconhecimento{
  -String designacao
  -String data
  -CompetenciaTecnica competencia
  -GrauProficiencia grau
  +getGrauProfiencia()
}

class EfetuarCandidaturaController {
  -List<AnunciosElegiveis> listElegiveis
  +getAnunciosElegiveis()
  +novaCandidatura()
  +efetuarCandidatura()
}

class EfetuarCandidaturaUI {
}

class RegistoFreelancer {
  -List<Freelancer> listFreelancer
  +getFreelancerByEmail(EmailUtlz)
}

class RegistoAnuncio {
  -List<Anuncio> listAnuncio
  +getListaAnuncioElegiveis(freelancer)
  +getAnuncio()
  +addAnuncio(anuncio)
}

class RegistoCandidatura {
  +novaCandidatura(valor, duracao, texto)
  +validaCandidatura(candidatura)
  +efetuarCandidatura(candidatura)
  +addCandidatura(candidatura)
}

EfetuarCandidaturaUI ..> EfetuarCandidaturaController

EfetuarCandidaturaController ..> Plataforma
EfetuarCandidaturaController ..> AplicacaoPOT
EfetuarCandidaturaController ..> SessaoUtilizador

Plataforma ..> RegistoFreelancer
Plataforma ..> RegistoAnuncio

RegistoAnuncio ..> Anuncio

Anuncio ..> RegistoCandidatura

RegistoCandidatura ..> Candidatura

RegistoFreelancer ..> Freelancer

Anuncio "*" - -> "1" Tarefa: possui
Tarefa "*" -> "1" Categoria : enquadra-se em
Categoria "1" -> "*" CompetenciaTecnica: requer
CompetenciaTecnica "1" -> "*" GrauProficiencia: associado
Freelancer "1..*" -> "1" Reconhecimento: tem
Reconhecimento "1" -> "1..*" GrauProficiencia: enquadra-se
(Categoria, CompetenciaTecnica) .. CaraterCT
@enduml

PlantUML version 1.2019.12(Sun Nov 03 10:24:54 UTC 2019)
(GPL source distribution)
Java Runtime: OpenJDK Runtime Environment
JVM: OpenJDK 64-Bit Server VM
Java Version: 1.8.0_232-heroku-b09
Operating System: Linux
Default Encoding: UTF-8
Language: en
Country: US
--></g></svg>