@startuml
autonumber
actor "Freelancer" as FL

activate FL
FL -> ":Sistema" : Inicia o processo de candidatura
activate ":Sistema"
":Sistema" --> FL : Apresenta núncios com tarefas elegíveis para o Freelance\n (tem que possuir o g.p.m. para a tarefa)
deactivate ":Sistema"

FL -> ":Sistema" : Seleciona o anúncia ao qual se vai candidatar
activate ":Sistema"
":Sistema" --> FL : Solicita os dados necessários (i.e valor pretendido pela realização da tarefa,\n número de dias para realizar a mesma e\n um  texto de apresentação e/ou motivação (opcional))
deactivate ":Sistema"

FL -> ":Sistema" : Introduz os dados solicitados
activate ":Sistema"
":Sistema" --> FL :Apresenta os dados e solicita confirmação
deactivate ":Sistema"

FL -> ":Sistema" : Confirma os dados
activate ":Sistema"
":Sistema" --> FL :Regista a candidatura e informa do sucesso da operação
deactivate ":Sistema"

deactivate FL

@enduml
